iot@iot-Precision-5820-Tower:~/Desktop/testJuypter$ ./toaCalculator.out

******************* ToA Calculator: *******************

payload size in Bytes:242

SF:7

CR:1

CRC:0

Header:0

BW:125000

Num. of symbols:8

DE:0


The ToA based on above data:0.374016 sec or 374.016022 msec

******************************************************
iot@iot-Precision-5820-Tower:~/Desktop/testJuypter$ ./toaCalculator.out

******************* ToA Calculator: *******************

payload size in Bytes:242

SF:8

CR:1

CRC:0

Header:0

BW:500000

Num. of symbols:8

DE:0


The ToA based on above data:0.163968 sec or 163.968002 msec

******************************************************
iot@iot-Precision-5820-Tower:~/Desktop/testJuypter$ ./toaCalculator.out

******************* ToA Calculator: *******************

payload size in Bytes:53

SF:9

CR:1

CRC:0

Header:0

BW:125000

Num. of symbols:8

DE:0


The ToA based on above data:0.308224 sec or 308.223999 msec

******************************************************
iot@iot-Precision-5820-Tower:~/Desktop/testJuypter$ ./toaCalculator.out

******************* ToA Calculator: *******************

payload size in Bytes:11

SF:10

CR:1

CRC:0

Header:0

BW:125000

Num. of symbols:8

DE:0


The ToA based on above data:0.206848 sec or 206.847992 msec

******************************************************
iot@iot-Precision-5820-Tower:~/Desktop/testJuypter$ ./toaCalculator.out

******************* ToA Calculator: *******************

payload size in Bytes:125

SF:8

CR:1

CRC:0

Header:0

BW:125000

Num. of symbols:8

DE:0


The ToA based on above data:0.358912 sec or 358.912018 msec

******************************************************
