Device ID:00-80-00-00-04-00-98-2b | Tx Time: 1569541074
Device ID:00-80-00-00-00-00-fe-36 | Tx Time: 1569541068
Device ID:00-80-00-00-04-00-98-02 | Tx Time: 1569541072
Device ID:00-80-00-00-00-00-fe-37 | Tx Time: 1569541075
Device ID:00-80-00-00-04-00-98-2b | Tx Time: 1569541085
Device ID:00-80-00-00-00-00-fe-36 | Tx Time: 1569541080
Device ID:00-80-00-00-04-00-98-02 | Tx Time: 1569541084
Device ID:00-80-00-00-00-00-fe-37 | Tx Time: 1569541086
Device ID:00-80-00-00-04-00-98-2b | Tx Time: 1569541097
Device ID:00-80-00-00-04-00-98-02 | Tx Time: 1569541095
Device ID:00-80-00-00-00-00-fe-37 | Tx Time: 1569541098
Device ID:00-80-00-00-04-00-98-2b | Tx Time: 1569541108
Device ID:00-80-00-00-00-00-fe-36 | Tx Time: 1569541103
Device ID:00-80-00-00-04-00-98-02 | Tx Time: 1569541106
Device ID:00-80-00-00-00-00-fe-37 | Tx Time: 1569541111
Device ID:00-80-00-00-04-00-98-2b | Tx Time: 1569541120
Device ID:00-80-00-00-00-00-fe-36 | Tx Time: 1569541115
Device ID:00-80-00-00-04-00-98-02 | Tx Time: 1569541118
Device ID:00-80-00-00-00-00-fe-37 | Tx Time: 1569541122
Device ID:00-80-00-00-04-00-98-2b | Tx Time: 1569541132
Device ID:00-80-00-00-04-00-98-02 | Tx Time: 1569541129
Device ID:00-80-00-00-00-00-fe-37 | Tx Time: 1569541134
Device ID:00-80-00-00-04-00-98-2b | Tx Time: 1569541143
Device ID:00-80-00-00-00-00-fe-36 | Tx Time: 1569541137
Device ID:00-80-00-00-04-00-98-02 | Tx Time: 1569541142
Device ID:00-80-00-00-00-00-fe-37 | Tx Time: 1569541147
Device ID:00-80-00-00-04-00-98-2b | Tx Time: 1569541155
Device ID:00-80-00-00-00-00-fe-36 | Tx Time: 1569541150
Device ID:00-80-00-00-04-00-98-02 | Tx Time: 1569541154
Device ID:00-80-00-00-00-00-fe-37 | Tx Time: 1569541158
Device ID:00-80-00-00-04-00-98-2b | Tx Time: 1569541167
Device ID:00-80-00-00-04-00-98-02 | Tx Time: 1569541165
Device ID:00-80-00-00-00-00-fe-37 | Tx Time: 1569541170
Device ID:00-80-00-00-04-00-98-2b | Tx Time: 1569541179
Device ID:00-80-00-00-00-00-fe-36 | Tx Time: 1569541172
Device ID:00-80-00-00-04-00-98-02 | Tx Time: 1569541177
Device ID:00-80-00-00-00-00-fe-37 | Tx Time: 1569541183
Device ID:00-80-00-00-04-00-98-2b | Tx Time: 1569541191
Device ID:00-80-00-00-00-00-fe-36 | Tx Time: 1569541185
Device ID:00-80-00-00-04-00-98-02 | Tx Time: 1569541189
Device ID:00-80-00-00-00-00-fe-37 | Tx Time: 1569541194
Device ID:00-80-00-00-04-00-98-2b | Tx Time: 1569541203
Device ID:00-80-00-00-04-00-98-02 | Tx Time: 1569541201
Device ID:00-80-00-00-00-00-fe-37 | Tx Time: 1569541206
Device ID:00-80-00-00-04-00-98-2b | Tx Time: 1569541214
Device ID:00-80-00-00-00-00-fe-36 | Tx Time: 1569541207
Device ID:00-80-00-00-04-00-98-02 | Tx Time: 1569541213
Device ID:00-80-00-00-00-00-fe-37 | Tx Time: 1569541218
Device ID:00-80-00-00-04-00-98-2b | Tx Time: 1569541226
Device ID:00-80-00-00-00-00-fe-36 | Tx Time: 1569541220
Device ID:00-80-00-00-04-00-98-02 | Tx Time: 1569541225
Device ID:00-80-00-00-00-00-fe-37 | Tx Time: 1569541230
Device ID:00-80-00-00-04-00-98-2b | Tx Time: 1569541238
Device ID:00-80-00-00-04-00-98-02 | Tx Time: 1569541236
Device ID:00-80-00-00-00-00-fe-37 | Tx Time: 1569541242
Device ID:00-80-00-00-04-00-98-2b | Tx Time: 1569541249
Device ID:00-80-00-00-00-00-fe-36 | Tx Time: 1569541242
Device ID:00-80-00-00-04-00-98-02 | Tx Time: 1569541248
Device ID:00-80-00-00-00-00-fe-37 | Tx Time: 1569541254
Device ID:00-80-00-00-04-00-98-2b | Tx Time: 1569541261
Device ID:00-80-00-00-04-00-98-02 | Tx Time: 1569541261
Device ID:00-80-00-00-00-00-fe-37 | Tx Time: 1569541266
Device ID:00-80-00-00-04-00-98-2b | Tx Time: 1569541274
Device ID:00-80-00-00-04-00-98-02 | Tx Time: 1569541272
Device ID:00-80-00-00-04-00-98-2b | Tx Time: 1569541285
Device ID:00-80-00-00-00-00-fe-36 | Tx Time: 1569541277
Device ID:00-80-00-00-00-00-fe-37 | Tx Time: 1569541278
Device ID:00-80-00-00-04-00-98-02 | Tx Time: 1569541284
Device ID:00-80-00-00-04-00-98-2b | Tx Time: 1569541297
Device ID:00-80-00-00-04-00-98-02 | Tx Time: 1569541296
Device ID:00-80-00-00-04-00-98-2b | Tx Time: 1569541309
Device ID:00-80-00-00-00-00-fe-37 | Tx Time: 1569541302
Device ID:00-80-00-00-04-00-98-02 | Tx Time: 1569541307
Device ID:00-80-00-00-00-00-fe-36 | Tx Time: 1569541312
Device ID:00-80-00-00-04-00-98-2b | Tx Time: 1569541320
Device ID:00-80-00-00-00-00-fe-37 | Tx Time: 1569541315
Device ID:00-80-00-00-04-00-98-02 | Tx Time: 1569541319
Device ID:00-80-00-00-04-00-98-2b | Tx Time: 1569541332
Device ID:00-80-00-00-00-00-fe-37 | Tx Time: 1569541327
Device ID:00-80-00-00-04-00-98-02 | Tx Time: 1569541332
Device ID:00-80-00-00-04-00-98-2b | Tx Time: 1569541344
Device ID:00-80-00-00-00-00-fe-37 | Tx Time: 1569541338
Device ID:00-80-00-00-04-00-98-02 | Tx Time: 1569541343
Device ID:00-80-00-00-04-00-98-2b | Tx Time: 1569541355
Device ID:00-80-00-00-00-00-fe-37 | Tx Time: 1569541351
Device ID:00-80-00-00-04-00-98-02 | Tx Time: 1569541355
Device ID:00-80-00-00-04-00-98-2b | Tx Time: 1569541368
Device ID:00-80-00-00-00-00-fe-37 | Tx Time: 1569541363
Device ID:00-80-00-00-04-00-98-02 | Tx Time: 1569541367
Device ID:00-80-00-00-04-00-98-2b | Tx Time: 1569541380
Device ID:00-80-00-00-04-00-98-02 | Tx Time: 1569541378
Device ID:00-80-00-00-04-00-98-2b | Tx Time: 1569541391
Device ID:00-80-00-00-00-00-fe-36 | Tx Time: 1569541384
Device ID:00-80-00-00-00-00-fe-37 | Tx Time: 1569541386
Device ID:00-80-00-00-04-00-98-02 | Tx Time: 1569541391
Device ID:00-80-00-00-04-00-98-2b | Tx Time: 1569541403
Device ID:00-80-00-00-00-00-fe-37 | Tx Time: 1569541399
Device ID:00-80-00-00-04-00-98-02 | Tx Time: 1569541403
Device ID:00-80-00-00-04-00-98-2b | Tx Time: 1569541415
Device ID:00-80-00-00-00-00-fe-37 | Tx Time: 1569541410
Device ID:00-80-00-00-04-00-98-02 | Tx Time: 1569541414
Device ID:00-80-00-00-04-00-98-2b | Tx Time: 1569541426
Device ID:00-80-00-00-00-00-fe-37 | Tx Time: 1569541421
Device ID:00-80-00-00-04-00-98-02 | Tx Time: 1569541426
Device ID:00-80-00-00-04-00-98-2b | Tx Time: 1569541438
Device ID:00-80-00-00-00-00-fe-37 | Tx Time: 1569541433
Device ID:00-80-00-00-04-00-98-02 | Tx Time: 1569541438
Device ID:00-80-00-00-04-00-98-2b | Tx Time: 1569541450
Device ID:00-80-00-00-00-00-fe-37 | Tx Time: 1569541444
Device ID:00-80-00-00-04-00-98-02 | Tx Time: 1569541450
Device ID:00-80-00-00-04-00-98-2b | Tx Time: 1569541462
Device ID:00-80-00-00-00-00-fe-37 | Tx Time: 1569541455
Device ID:00-80-00-00-00-00-fe-37 | Tx Time: 1569541467
Device ID:00-80-00-00-04-00-98-2b | Tx Time: 1569541474
Device ID:00-80-00-00-04-00-98-02 | Tx Time: 1569541474
Device ID:00-80-00-00-00-00-fe-37 | Tx Time: 1569541478
Device ID:00-80-00-00-04-00-98-2b | Tx Time: 1569541486
Device ID:00-80-00-00-04-00-98-02 | Tx Time: 1569541485
Device ID:00-80-00-00-04-00-98-2b | Tx Time: 1569541497
Device ID:00-80-00-00-04-00-98-02 | Tx Time: 1569541497
Device ID:00-80-00-00-00-00-fe-37 | Tx Time: 1569541501
Device ID:00-80-00-00-04-00-98-2b | Tx Time: 1569541509
Device ID:00-80-00-00-04-00-98-02 | Tx Time: 1569541510
Device ID:00-80-00-00-00-00-fe-37 | Tx Time: 1569541513
Device ID:00-80-00-00-04-00-98-2b | Tx Time: 1569541521
Device ID:00-80-00-00-04-00-98-02 | Tx Time: 1569541521
Device ID:00-80-00-00-00-00-fe-37 | Tx Time: 1569541524
Device ID:00-80-00-00-04-00-98-2b | Tx Time: 1569541532
Device ID:00-80-00-00-04-00-98-02 | Tx Time: 1569541533
Device ID:00-80-00-00-04-00-98-2b | Tx Time: 1569541544
Device ID:00-80-00-00-04-00-98-02 | Tx Time: 1569541545
Device ID:00-80-00-00-00-00-fe-37 | Tx Time: 1569541548
Device ID:00-80-00-00-04-00-98-2b | Tx Time: 1569541557
Device ID:00-80-00-00-04-00-98-02 | Tx Time: 1569541556
Device ID:00-80-00-00-00-00-fe-37 | Tx Time: 1569541560
Device ID:00-80-00-00-04-00-98-2b | Tx Time: 1569541568
Device ID:00-80-00-00-04-00-98-02 | Tx Time: 1569541568
Device ID:00-80-00-00-00-00-fe-37 | Tx Time: 1569541571
Device ID:00-80-00-00-04-00-98-2b | Tx Time: 1569541580
Device ID:00-80-00-00-00-00-fe-37 | Tx Time: 1569541582
Device ID:00-80-00-00-04-00-98-02 | Tx Time: 1569541581
Device ID:00-80-00-00-04-00-98-2b | Tx Time: 1569541592
Device ID:00-80-00-00-00-00-fe-36 | Tx Time: 1569541587
Device ID:00-80-00-00-00-00-fe-37 | Tx Time: 1569541594
Device ID:00-80-00-00-04-00-98-02 | Tx Time: 1569541593
Device ID:00-80-00-00-04-00-98-2b | Tx Time: 1569541603
Device ID:00-80-00-00-00-00-fe-36 | Tx Time: 1569541600
Device ID:00-80-00-00-00-00-fe-37 | Tx Time: 1569541605
Device ID:00-80-00-00-04-00-98-02 | Tx Time: 1569541605
Device ID:00-80-00-00-04-00-98-2b | Tx Time: 1569541615
Device ID:00-80-00-00-00-00-fe-37 | Tx Time: 1569541616
Device ID:00-80-00-00-04-00-98-02 | Tx Time: 1569541617
Device ID:00-80-00-00-04-00-98-2b | Tx Time: 1569541627
Device ID:00-80-00-00-00-00-fe-36 | Tx Time: 1569541622
Device ID:00-80-00-00-00-00-fe-37 | Tx Time: 1569541628
Device ID:00-80-00-00-04-00-98-02 | Tx Time: 1569541628
Device ID:00-80-00-00-04-00-98-2b | Tx Time: 1569541638
Device ID:00-80-00-00-00-00-fe-36 | Tx Time: 1569541635
Device ID:00-80-00-00-00-00-fe-37 | Tx Time: 1569541639
Device ID:00-80-00-00-04-00-98-02 | Tx Time: 1569541641
Device ID:00-80-00-00-04-00-98-2b | Tx Time: 1569541651
Device ID:00-80-00-00-00-00-fe-37 | Tx Time: 1569541650
Device ID:00-80-00-00-04-00-98-02 | Tx Time: 1569541653
Device ID:00-80-00-00-00-00-fe-36 | Tx Time: 1569541657
Device ID:00-80-00-00-00-00-fe-37 | Tx Time: 1569541662
Device ID:00-80-00-00-04-00-98-02 | Tx Time: 1569541664
Device ID:00-80-00-00-04-00-98-2b | Tx Time: 1569541675
Device ID:00-80-00-00-00-00-fe-36 | Tx Time: 1569541670
Device ID:00-80-00-00-00-00-fe-37 | Tx Time: 1569541673
Device ID:00-80-00-00-04-00-98-02 | Tx Time: 1569541676
Device ID:00-80-00-00-04-00-98-2b | Tx Time: 1569541687
Device ID:00-80-00-00-00-00-fe-37 | Tx Time: 1569541684
Device ID:00-80-00-00-04-00-98-02 | Tx Time: 1569541688
Device ID:00-80-00-00-04-00-98-2b | Tx Time: 1569541699
Device ID:00-80-00-00-00-00-fe-36 | Tx Time: 1569541692
Device ID:00-80-00-00-00-00-fe-37 | Tx Time: 1569541695
Device ID:00-80-00-00-04-00-98-02 | Tx Time: 1569541700
Device ID:00-80-00-00-04-00-98-2b | Tx Time: 1569541710
Device ID:00-80-00-00-00-00-fe-36 | Tx Time: 1569541705
Device ID:00-80-00-00-00-00-fe-37 | Tx Time: 1569541707
Device ID:00-80-00-00-04-00-98-02 | Tx Time: 1569541712
Device ID:00-80-00-00-04-00-98-2b | Tx Time: 1569541722
Device ID:00-80-00-00-00-00-fe-37 | Tx Time: 1569541718
Device ID:00-80-00-00-04-00-98-02 | Tx Time: 1569541724
Device ID:00-80-00-00-04-00-98-2b | Tx Time: 1569541734
Device ID:00-80-00-00-00-00-fe-36 | Tx Time: 1569541727
Device ID:00-80-00-00-00-00-fe-37 | Tx Time: 1569541729
Device ID:00-80-00-00-04-00-98-02 | Tx Time: 1569541735
Device ID:00-80-00-00-04-00-98-2b | Tx Time: 1569541746
Device ID:00-80-00-00-00-00-fe-36 | Tx Time: 1569541740
Device ID:00-80-00-00-00-00-fe-37 | Tx Time: 1569541741
Device ID:00-80-00-00-04-00-98-02 | Tx Time: 1569541747
Device ID:00-80-00-00-04-00-98-2b | Tx Time: 1569541758
Device ID:00-80-00-00-00-00-fe-37 | Tx Time: 1569541752
Device ID:00-80-00-00-04-00-98-02 | Tx Time: 1569541760
Device ID:00-80-00-00-04-00-98-2b | Tx Time: 1569541770
Device ID:00-80-00-00-00-00-fe-37 | Tx Time: 1569541763
Device ID:00-80-00-00-04-00-98-02 | Tx Time: 1569541771
Device ID:00-80-00-00-04-00-98-2b | Tx Time: 1569541781
Device ID:00-80-00-00-00-00-fe-36 | Tx Time: 1569541775
Device ID:00-80-00-00-00-00-fe-37 | Tx Time: 1569541776
Device ID:00-80-00-00-04-00-98-02 | Tx Time: 1569541783
Device ID:00-80-00-00-04-00-98-2b | Tx Time: 1569541793
Device ID:00-80-00-00-00-00-fe-37 | Tx Time: 1569541787
Device ID:00-80-00-00-04-00-98-02 | Tx Time: 1569541795
Device ID:00-80-00-00-00-00-fe-36 | Tx Time: 1569541797
Device ID:00-80-00-00-04-00-98-2b | Tx Time: 1569541805
Device ID:00-80-00-00-00-00-fe-37 | Tx Time: 1569541799
Device ID:00-80-00-00-04-00-98-02 | Tx Time: 1569541806
Device ID:00-80-00-00-04-00-98-2b | Tx Time: 1569541816
Device ID:00-80-00-00-00-00-fe-36 | Tx Time: 1569541810
Device ID:00-80-00-00-00-00-fe-37 | Tx Time: 1569541811
Device ID:00-80-00-00-04-00-98-02 | Tx Time: 1569541818
Device ID:00-80-00-00-04-00-98-2b | Tx Time: 1569541828
Device ID:00-80-00-00-00-00-fe-37 | Tx Time: 1569541824
Device ID:00-80-00-00-04-00-98-02 | Tx Time: 1569541831
Device ID:00-80-00-00-00-00-fe-36 | Tx Time: 1569541832
Device ID:00-80-00-00-04-00-98-2b | Tx Time: 1569541841
Device ID:00-80-00-00-00-00-fe-37 | Tx Time: 1569541836
Device ID:00-80-00-00-04-00-98-02 | Tx Time: 1569541842
Device ID:00-80-00-00-00-00-fe-36 | Tx Time: 1569541845
Device ID:00-80-00-00-00-00-fe-37 | Tx Time: 1569541848
Device ID:00-80-00-00-04-00-98-02 | Tx Time: 1569541854
Device ID:00-80-00-00-04-00-98-2b | Tx Time: 1569541864
Device ID:00-80-00-00-00-00-fe-37 | Tx Time: 1569541860
Device ID:00-80-00-00-00-00-fe-36 | Tx Time: 1569541867
Device ID:00-80-00-00-04-00-98-02 | Tx Time: 1569541866
Device ID:00-80-00-00-04-00-98-2b | Tx Time: 1569541876
Device ID:00-80-00-00-00-00-fe-37 | Tx Time: 1569541872
Device ID:00-80-00-00-04-00-98-02 | Tx Time: 1569541877
Device ID:00-80-00-00-00-00-fe-36 | Tx Time: 1569541879
Device ID:00-80-00-00-04-00-98-2b | Tx Time: 1569541887
Device ID:00-80-00-00-00-00-fe-37 | Tx Time: 1569541884
Device ID:00-80-00-00-04-00-98-2b | Tx Time: 1569541898
Device ID:00-80-00-00-04-00-98-02 | Tx Time: 1569541890
Device ID:00-80-00-00-00-00-fe-37 | Tx Time: 1569541895
Device ID:00-80-00-00-04-00-98-2b | Tx Time: 1569541909
Device ID:00-80-00-00-00-00-fe-36 | Tx Time: 1569541902
Device ID:00-80-00-00-04-00-98-02 | Tx Time: 1569541902
Device ID:00-80-00-00-00-00-fe-37 | Tx Time: 1569541908
Device ID:00-80-00-00-04-00-98-2b | Tx Time: 1569541921
Device ID:00-80-00-00-04-00-98-02 | Tx Time: 1569541913
Device ID:00-80-00-00-00-00-fe-36 | Tx Time: 1569541914
Device ID:00-80-00-00-00-00-fe-37 | Tx Time: 1569541920
Device ID:00-80-00-00-04-00-98-2b | Tx Time: 1569541932
Device ID:00-80-00-00-04-00-98-02 | Tx Time: 1569541925
Device ID:00-80-00-00-00-00-fe-37 | Tx Time: 1569541931
Device ID:00-80-00-00-04-00-98-2b | Tx Time: 1569541943
Device ID:00-80-00-00-00-00-fe-36 | Tx Time: 1569541937
Device ID:00-80-00-00-04-00-98-02 | Tx Time: 1569541937
Device ID:00-80-00-00-00-00-fe-37 | Tx Time: 1569541944
Device ID:00-80-00-00-04-00-98-2b | Tx Time: 1569541954
Device ID:00-80-00-00-00-00-fe-36 | Tx Time: 1569541949
Device ID:00-80-00-00-04-00-98-02 | Tx Time: 1569541949
Device ID:00-80-00-00-00-00-fe-37 | Tx Time: 1569541956
Device ID:00-80-00-00-04-00-98-2b | Tx Time: 1569541965
Device ID:00-80-00-00-04-00-98-02 | Tx Time: 1569541961
Device ID:00-80-00-00-00-00-fe-37 | Tx Time: 1569541967
Device ID:00-80-00-00-04-00-98-2b | Tx Time: 1569541976
Device ID:00-80-00-00-00-00-fe-36 | Tx Time: 1569541972
Device ID:00-80-00-00-04-00-98-02 | Tx Time: 1569541973
Device ID:00-80-00-00-00-00-fe-37 | Tx Time: 1569541979
Device ID:00-80-00-00-04-00-98-2b | Tx Time: 1569541987
Device ID:00-80-00-00-00-00-fe-36 | Tx Time: 1569541984
Device ID:00-80-00-00-04-00-98-02 | Tx Time: 1569541984
Device ID:00-80-00-00-04-00-98-2b | Tx Time: 1569541998
Device ID:00-80-00-00-00-00-fe-37 | Tx Time: 1569541992
Device ID:00-80-00-00-04-00-98-02 | Tx Time: 1569541996
Device ID:00-80-00-00-04-00-98-2b | Tx Time: 1569542010
Device ID:00-80-00-00-00-00-fe-37 | Tx Time: 1569542003
Device ID:00-80-00-00-00-00-fe-36 | Tx Time: 1569542007
Device ID:00-80-00-00-04-00-98-02 | Tx Time: 1569542009
Device ID:00-80-00-00-04-00-98-2b | Tx Time: 1569542021
Device ID:00-80-00-00-00-00-fe-37 | Tx Time: 1569542015
Device ID:00-80-00-00-00-00-fe-36 | Tx Time: 1569542019
Device ID:00-80-00-00-04-00-98-02 | Tx Time: 1569542020
Device ID:00-80-00-00-04-00-98-2b | Tx Time: 1569542032
Device ID:00-80-00-00-00-00-fe-37 | Tx Time: 1569542028
Device ID:00-80-00-00-04-00-98-02 | Tx Time: 1569542032
Device ID:00-80-00-00-04-00-98-2b | Tx Time: 1569542043
Device ID:00-80-00-00-00-00-fe-37 | Tx Time: 1569542039
Device ID:00-80-00-00-00-00-fe-36 | Tx Time: 1569542042
Device ID:00-80-00-00-04-00-98-02 | Tx Time: 1569542044
Device ID:00-80-00-00-04-00-98-2b | Tx Time: 1569542054
Device ID:00-80-00-00-00-00-fe-37 | Tx Time: 1569542051
Device ID:00-80-00-00-00-00-fe-36 | Tx Time: 1569542054
Device ID:00-80-00-00-04-00-98-02 | Tx Time: 1569542055
Device ID:00-80-00-00-04-00-98-2b | Tx Time: 1569542065
Device ID:00-80-00-00-00-00-fe-37 | Tx Time: 1569542063
Device ID:00-80-00-00-04-00-98-02 | Tx Time: 1569542067
Device ID:00-80-00-00-04-00-98-2b | Tx Time: 1569542076
Device ID:00-80-00-00-00-00-fe-37 | Tx Time: 1569542075
Device ID:00-80-00-00-00-00-fe-36 | Tx Time: 1569542077
Device ID:00-80-00-00-04-00-98-2b | Tx Time: 1569542088
Device ID:00-80-00-00-04-00-98-02 | Tx Time: 1569542080
Device ID:00-80-00-00-00-00-fe-37 | Tx Time: 1569542087
Device ID:00-80-00-00-00-00-fe-36 | Tx Time: 1569542089
Device ID:00-80-00-00-04-00-98-02 | Tx Time: 1569542091
Device ID:00-80-00-00-04-00-98-2b | Tx Time: 1569542100
Device ID:00-80-00-00-00-00-fe-37 | Tx Time: 1569542099
Device ID:00-80-00-00-04-00-98-2b | Tx Time: 1569542112
Device ID:00-80-00-00-04-00-98-02 | Tx Time: 1569542103
Device ID:00-80-00-00-00-00-fe-37 | Tx Time: 1569542111
Device ID:00-80-00-00-00-00-fe-36 | Tx Time: 1569542112
Device ID:00-80-00-00-04-00-98-2b | Tx Time: 1569542123
Device ID:00-80-00-00-04-00-98-02 | Tx Time: 1569542115
Device ID:00-80-00-00-00-00-fe-37 | Tx Time: 1569542123
Device ID:00-80-00-00-00-00-fe-36 | Tx Time: 1569542124
Device ID:00-80-00-00-04-00-98-2b | Tx Time: 1569542135
Device ID:00-80-00-00-04-00-98-02 | Tx Time: 1569542126
Device ID:00-80-00-00-00-00-fe-37 | Tx Time: 1569542135
Device ID:00-80-00-00-04-00-98-2b | Tx Time: 1569542147
Device ID:00-80-00-00-04-00-98-02 | Tx Time: 1569542139
Device ID:00-80-00-00-00-00-fe-37 | Tx Time: 1569542146
Device ID:00-80-00-00-00-00-fe-36 | Tx Time: 1569542147
Device ID:00-80-00-00-04-00-98-2b | Tx Time: 1569542158
Device ID:00-80-00-00-04-00-98-02 | Tx Time: 1569542151
Device ID:00-80-00-00-00-00-fe-37 | Tx Time: 1569542159
Device ID:00-80-00-00-00-00-fe-36 | Tx Time: 1569542159
Device ID:00-80-00-00-04-00-98-2b | Tx Time: 1569542170
Device ID:00-80-00-00-04-00-98-02 | Tx Time: 1569542162
Device ID:00-80-00-00-00-00-fe-37 | Tx Time: 1569542171
Device ID:00-80-00-00-04-00-98-2b | Tx Time: 1569542183
Device ID:00-80-00-00-04-00-98-02 | Tx Time: 1569542174
Device ID:00-80-00-00-00-00-fe-36 | Tx Time: 1569542182
Device ID:00-80-00-00-00-00-fe-37 | Tx Time: 1569542182
Device ID:00-80-00-00-04-00-98-2b | Tx Time: 1569542194
Device ID:00-80-00-00-04-00-98-02 | Tx Time: 1569542186
Device ID:00-80-00-00-00-00-fe-37 | Tx Time: 1569542195
Device ID:00-80-00-00-00-00-fe-36 | Tx Time: 1569542194
Device ID:00-80-00-00-04-00-98-2b | Tx Time: 1569542206
Device ID:00-80-00-00-04-00-98-02 | Tx Time: 1569542198
Device ID:00-80-00-00-00-00-fe-37 | Tx Time: 1569542207
Device ID:00-80-00-00-04-00-98-2b | Tx Time: 1569542218
Device ID:00-80-00-00-04-00-98-02 | Tx Time: 1569542210
Device ID:00-80-00-00-00-00-fe-36 | Tx Time: 1569542217
Device ID:00-80-00-00-00-00-fe-37 | Tx Time: 1569542218
Device ID:00-80-00-00-04-00-98-2b | Tx Time: 1569542229
Device ID:00-80-00-00-04-00-98-02 | Tx Time: 1569542222
Device ID:00-80-00-00-00-00-fe-36 | Tx Time: 1569542229
Device ID:00-80-00-00-00-00-fe-37 | Tx Time: 1569542231
Device ID:00-80-00-00-04-00-98-2b | Tx Time: 1569542241
Device ID:00-80-00-00-04-00-98-02 | Tx Time: 1569542233
Device ID:00-80-00-00-04-00-98-2b | Tx Time: 1569542253
Device ID:00-80-00-00-04-00-98-02 | Tx Time: 1569542245
Device ID:00-80-00-00-00-00-fe-36 | Tx Time: 1569542252
Device ID:00-80-00-00-00-00-fe-37 | Tx Time: 1569542255
Device ID:00-80-00-00-04-00-98-2b | Tx Time: 1569542264
Device ID:00-80-00-00-04-00-98-02 | Tx Time: 1569542258
Device ID:00-80-00-00-00-00-fe-36 | Tx Time: 1569542264
Device ID:00-80-00-00-00-00-fe-37 | Tx Time: 1569542267
Device ID:00-80-00-00-04-00-98-2b | Tx Time: 1569542277
Device ID:00-80-00-00-04-00-98-02 | Tx Time: 1569542269
Device ID:00-80-00-00-00-00-fe-37 | Tx Time: 1569542280
Device ID:00-80-00-00-04-00-98-2b | Tx Time: 1569542289
Device ID:00-80-00-00-00-00-fe-36 | Tx Time: 1569542287
Device ID:00-80-00-00-00-00-fe-37 | Tx Time: 1569542291
Device ID:00-80-00-00-04-00-98-2b | Tx Time: 1569542300
Device ID:00-80-00-00-04-00-98-02 | Tx Time: 1569542293
Device ID:00-80-00-00-00-00-fe-36 | Tx Time: 1569542299
Device ID:00-80-00-00-00-00-fe-37 | Tx Time: 1569542303
Device ID:00-80-00-00-04-00-98-2b | Tx Time: 1569542312
Device ID:00-80-00-00-04-00-98-02 | Tx Time: 1569542304
Device ID:00-80-00-00-00-00-fe-37 | Tx Time: 1569542316
Device ID:00-80-00-00-04-00-98-2b | Tx Time: 1569542324
Device ID:00-80-00-00-04-00-98-02 | Tx Time: 1569542316
Device ID:00-80-00-00-00-00-fe-36 | Tx Time: 1569542322
Device ID:00-80-00-00-00-00-fe-37 | Tx Time: 1569542327
Device ID:00-80-00-00-04-00-98-2b | Tx Time: 1569542335
Device ID:00-80-00-00-04-00-98-02 | Tx Time: 1569542329
Device ID:00-80-00-00-00-00-fe-36 | Tx Time: 1569542334
Device ID:00-80-00-00-00-00-fe-37 | Tx Time: 1569542339
Device ID:00-80-00-00-04-00-98-2b | Tx Time: 1569542347
Device ID:00-80-00-00-04-00-98-02 | Tx Time: 1569542340
Device ID:00-80-00-00-00-00-fe-37 | Tx Time: 1569542351
Device ID:00-80-00-00-04-00-98-02 | Tx Time: 1569542352
Device ID:00-80-00-00-00-00-fe-36 | Tx Time: 1569542356
Device ID:00-80-00-00-00-00-fe-37 | Tx Time: 1569542363
Device ID:00-80-00-00-04-00-98-2b | Tx Time: 1569542372
Device ID:00-80-00-00-04-00-98-02 | Tx Time: 1569542364
Device ID:00-80-00-00-00-00-fe-36 | Tx Time: 1569542369
Device ID:00-80-00-00-04-00-98-2b | Tx Time: 1569542384
Device ID:00-80-00-00-04-00-98-02 | Tx Time: 1569542375
Device ID:00-80-00-00-00-00-fe-37 | Tx Time: 1569542387
Device ID:00-80-00-00-04-00-98-2b | Tx Time: 1569542396
Device ID:00-80-00-00-04-00-98-02 | Tx Time: 1569542388
Device ID:00-80-00-00-00-00-fe-37 | Tx Time: 1569542399
Device ID:00-80-00-00-04-00-98-2b | Tx Time: 1569542407
Device ID:00-80-00-00-04-00-98-02 | Tx Time: 1569542400
Device ID:00-80-00-00-00-00-fe-36 | Tx Time: 1569542404
Device ID:00-80-00-00-00-00-fe-37 | Tx Time: 1569542411
Device ID:00-80-00-00-04-00-98-2b | Tx Time: 1569542419
Device ID:00-80-00-00-04-00-98-02 | Tx Time: 1569542411
Device ID:00-80-00-00-00-00-fe-37 | Tx Time: 1569542423
Device ID:00-80-00-00-04-00-98-02 | Tx Time: 1569542423
Device ID:00-80-00-00-00-00-fe-36 | Tx Time: 1569542426
Device ID:00-80-00-00-00-00-fe-37 | Tx Time: 1569542434
Device ID:00-80-00-00-04-00-98-2b | Tx Time: 1569542443
Device ID:00-80-00-00-04-00-98-02 | Tx Time: 1569542435
Device ID:00-80-00-00-00-00-fe-36 | Tx Time: 1569542439
Device ID:00-80-00-00-00-00-fe-37 | Tx Time: 1569542447
Device ID:00-80-00-00-04-00-98-02 | Tx Time: 1569542447
Device ID:00-80-00-00-04-00-98-2b | Tx Time: 1569542455
Device ID:00-80-00-00-00-00-fe-37 | Tx Time: 1569542459
Device ID:00-80-00-00-04-00-98-02 | Tx Time: 1569542459
Device ID:00-80-00-00-04-00-98-2b | Tx Time: 1569542468
Device ID:00-80-00-00-00-00-fe-36 | Tx Time: 1569542461
Device ID:00-80-00-00-00-00-fe-37 | Tx Time: 1569542470
Device ID:00-80-00-00-04-00-98-2b | Tx Time: 1569542480
Device ID:00-80-00-00-04-00-98-02 | Tx Time: 1569542471
Device ID:00-80-00-00-00-00-fe-36 | Tx Time: 1569542474
Device ID:00-80-00-00-00-00-fe-37 | Tx Time: 1569542483
Device ID:00-80-00-00-04-00-98-2b | Tx Time: 1569542492
Device ID:00-80-00-00-04-00-98-02 | Tx Time: 1569542483
Device ID:00-80-00-00-00-00-fe-37 | Tx Time: 1569542495
Device ID:00-80-00-00-00-00-fe-36 | Tx Time: 1569542496
Device ID:00-80-00-00-04-00-98-02 | Tx Time: 1569542495
Device ID:00-80-00-00-00-00-fe-37 | Tx Time: 1569542506
Device ID:00-80-00-00-04-00-98-2b | Tx Time: 1569542515
Device ID:00-80-00-00-00-00-fe-36 | Tx Time: 1569542509
Device ID:00-80-00-00-00-00-fe-37 | Tx Time: 1569542518
Device ID:00-80-00-00-04-00-98-2b | Tx Time: 1569542527
Device ID:00-80-00-00-04-00-98-02 | Tx Time: 1569542520
Device ID:00-80-00-00-00-00-fe-37 | Tx Time: 1569542531
Device ID:00-80-00-00-04-00-98-2b | Tx Time: 1569542538
Device ID:00-80-00-00-04-00-98-02 | Tx Time: 1569542532
Device ID:00-80-00-00-00-00-fe-37 | Tx Time: 1569542542
Device ID:00-80-00-00-04-00-98-2b | Tx Time: 1569542550
Device ID:00-80-00-00-00-00-fe-36 | Tx Time: 1569542544
Device ID:00-80-00-00-04-00-98-02 | Tx Time: 1569542544
Device ID:00-80-00-00-04-00-98-2b | Tx Time: 1569542561
Device ID:00-80-00-00-00-00-fe-37 | Tx Time: 1569542554
Device ID:00-80-00-00-04-00-98-02 | Tx Time: 1569542555
Device ID:00-80-00-00-04-00-98-2b | Tx Time: 1569542572
Device ID:00-80-00-00-00-00-fe-37 | Tx Time: 1569542567
Device ID:00-80-00-00-00-00-fe-36 | Tx Time: 1569542566
Device ID:00-80-00-00-04-00-98-02 | Tx Time: 1569542567
Device ID:00-80-00-00-04-00-98-2b | Tx Time: 1569542583
Device ID:00-80-00-00-00-00-fe-37 | Tx Time: 1569542578
Device ID:00-80-00-00-00-00-fe-36 | Tx Time: 1569542579
Device ID:00-80-00-00-04-00-98-02 | Tx Time: 1569542580
Device ID:00-80-00-00-04-00-98-2b | Tx Time: 1569542594
Device ID:00-80-00-00-00-00-fe-37 | Tx Time: 1569542590
Device ID:00-80-00-00-04-00-98-02 | Tx Time: 1569542591
Device ID:00-80-00-00-04-00-98-2b | Tx Time: 1569542605
Device ID:00-80-00-00-00-00-fe-37 | Tx Time: 1569542602
Device ID:00-80-00-00-04-00-98-02 | Tx Time: 1569542603
Device ID:00-80-00-00-04-00-98-2b | Tx Time: 1569542616
Device ID:00-80-00-00-00-00-fe-37 | Tx Time: 1569542614
Device ID:00-80-00-00-04-00-98-02 | Tx Time: 1569542615
Device ID:00-80-00-00-04-00-98-2b | Tx Time: 1569542627
Device ID:00-80-00-00-00-00-fe-37 | Tx Time: 1569542626
Device ID:00-80-00-00-04-00-98-02 | Tx Time: 1569542626
Device ID:00-80-00-00-00-00-fe-37 | Tx Time: 1569542638
Device ID:00-80-00-00-04-00-98-02 | Tx Time: 1569542639
Device ID:00-80-00-00-04-00-98-2b | Tx Time: 1569542651
Device ID:00-80-00-00-00-00-fe-37 | Tx Time: 1569542650
Device ID:00-80-00-00-04-00-98-02 | Tx Time: 1569542651
Device ID:00-80-00-00-04-00-98-2b | Tx Time: 1569542663
Device ID:00-80-00-00-00-00-fe-37 | Tx Time: 1569542662
Device ID:00-80-00-00-04-00-98-02 | Tx Time: 1569542662
Device ID:00-80-00-00-04-00-98-2b | Tx Time: 1569542674
Device ID:00-80-00-00-00-00-fe-37 | Tx Time: 1569542674
Device ID:00-80-00-00-04-00-98-02 | Tx Time: 1569542674
Device ID:00-80-00-00-04-00-98-2b | Tx Time: 1569542685
Device ID:00-80-00-00-00-00-fe-37 | Tx Time: 1569542686
Device ID:00-80-00-00-04-00-98-02 | Tx Time: 1569542686
Device ID:00-80-00-00-04-00-98-2b | Tx Time: 1569542696
Device ID:00-80-00-00-00-00-fe-37 | Tx Time: 1569542698
Device ID:00-80-00-00-04-00-98-02 | Tx Time: 1569542698
Device ID:00-80-00-00-04-00-98-2b | Tx Time: 1569542707
Device ID:00-80-00-00-00-00-fe-37 | Tx Time: 1569542710
Device ID:00-80-00-00-04-00-98-2b | Tx Time: 1569542719
Device ID:00-80-00-00-04-00-98-02 | Tx Time: 1569542710
Device ID:00-80-00-00-00-00-fe-37 | Tx Time: 1569542721
Device ID:00-80-00-00-04-00-98-2b | Tx Time: 1569542730
Device ID:00-80-00-00-00-00-fe-36 | Tx Time: 1569542731
Device ID:00-80-00-00-00-00-fe-37 | Tx Time: 1569542734
Device ID:00-80-00-00-04-00-98-2b | Tx Time: 1569542741
Device ID:00-80-00-00-04-00-98-02 | Tx Time: 1569542734
Device ID:00-80-00-00-04-00-98-2b | Tx Time: 1569542752
Device ID:00-80-00-00-04-00-98-02 | Tx Time: 1569542746
Device ID:00-80-00-00-00-00-fe-36 | Tx Time: 1569542753
Device ID:00-80-00-00-04-00-98-2b | Tx Time: 1569542763
Device ID:00-80-00-00-00-00-fe-37 | Tx Time: 1569542758
Device ID:00-80-00-00-04-00-98-02 | Tx Time: 1569542758
Device ID:00-80-00-00-00-00-fe-36 | Tx Time: 1569542766
Device ID:00-80-00-00-04-00-98-2b | Tx Time: 1569542774
Device ID:00-80-00-00-00-00-fe-37 | Tx Time: 1569542771
Device ID:00-80-00-00-04-00-98-02 | Tx Time: 1569542770
Device ID:00-80-00-00-04-00-98-2b | Tx Time: 1569542785
Device ID:00-80-00-00-00-00-fe-37 | Tx Time: 1569542783
Device ID:00-80-00-00-04-00-98-02 | Tx Time: 1569542782
Device ID:00-80-00-00-00-00-fe-36 | Tx Time: 1569542788
Device ID:00-80-00-00-04-00-98-2b | Tx Time: 1569542796
Device ID:00-80-00-00-00-00-fe-37 | Tx Time: 1569542794
Device ID:00-80-00-00-04-00-98-02 | Tx Time: 1569542794
Device ID:00-80-00-00-04-00-98-2b | Tx Time: 1569542808
Device ID:00-80-00-00-00-00-fe-36 | Tx Time: 1569542801
Device ID:00-80-00-00-00-00-fe-37 | Tx Time: 1569542806
Device ID:00-80-00-00-04-00-98-02 | Tx Time: 1569542805
Device ID:00-80-00-00-04-00-98-2b | Tx Time: 1569542819
Device ID:00-80-00-00-00-00-fe-37 | Tx Time: 1569542819
Device ID:00-80-00-00-04-00-98-02 | Tx Time: 1569542817
Device ID:00-80-00-00-04-00-98-2b | Tx Time: 1569542830
Device ID:00-80-00-00-00-00-fe-36 | Tx Time: 1569542823
Device ID:00-80-00-00-00-00-fe-37 | Tx Time: 1569542830
Device ID:00-80-00-00-04-00-98-02 | Tx Time: 1569542830
Device ID:00-80-00-00-04-00-98-2b | Tx Time: 1569542841
Device ID:00-80-00-00-00-00-fe-36 | Tx Time: 1569542836
Device ID:00-80-00-00-00-00-fe-37 | Tx Time: 1569542842
Device ID:00-80-00-00-04-00-98-02 | Tx Time: 1569542841
Device ID:00-80-00-00-04-00-98-2b | Tx Time: 1569542852
Device ID:00-80-00-00-00-00-fe-37 | Tx Time: 1569542855
Device ID:00-80-00-00-04-00-98-02 | Tx Time: 1569542853
Device ID:00-80-00-00-04-00-98-2b | Tx Time: 1569542864
Device ID:00-80-00-00-00-00-fe-36 | Tx Time: 1569542858
Device ID:00-80-00-00-00-00-fe-37 | Tx Time: 1569542866
Device ID:00-80-00-00-04-00-98-02 | Tx Time: 1569542865
Device ID:00-80-00-00-04-00-98-2b | Tx Time: 1569542876
Device ID:00-80-00-00-00-00-fe-36 | Tx Time: 1569542871
Device ID:00-80-00-00-00-00-fe-37 | Tx Time: 1569542878
Device ID:00-80-00-00-04-00-98-02 | Tx Time: 1569542876
Device ID:00-80-00-00-04-00-98-2b | Tx Time: 1569542888
Device ID:00-80-00-00-04-00-98-02 | Tx Time: 1569542889
Device ID:00-80-00-00-00-00-fe-37 | Tx Time: 1569542890
Device ID:00-80-00-00-04-00-98-2b | Tx Time: 1569542900
Device ID:00-80-00-00-00-00-fe-36 | Tx Time: 1569542893
Device ID:00-80-00-00-00-00-fe-37 | Tx Time: 1569542902
Device ID:00-80-00-00-04-00-98-02 | Tx Time: 1569542901
Device ID:00-80-00-00-04-00-98-2b | Tx Time: 1569542912
Device ID:00-80-00-00-00-00-fe-36 | Tx Time: 1569542906
Device ID:00-80-00-00-04-00-98-02 | Tx Time: 1569542912
Device ID:00-80-00-00-00-00-fe-37 | Tx Time: 1569542914
Device ID:00-80-00-00-04-00-98-2b | Tx Time: 1569542923
Device ID:00-80-00-00-04-00-98-02 | Tx Time: 1569542924
Device ID:00-80-00-00-00-00-fe-37 | Tx Time: 1569542926
Device ID:00-80-00-00-04-00-98-2b | Tx Time: 1569542935
Device ID:00-80-00-00-00-00-fe-36 | Tx Time: 1569542928
Device ID:00-80-00-00-00-00-fe-37 | Tx Time: 1569542938
Device ID:00-80-00-00-04-00-98-02 | Tx Time: 1569542936
Device ID:00-80-00-00-04-00-98-2b | Tx Time: 1569542947
Device ID:00-80-00-00-04-00-98-02 | Tx Time: 1569542948
Device ID:00-80-00-00-00-00-fe-37 | Tx Time: 1569542950
Device ID:00-80-00-00-04-00-98-2b | Tx Time: 1569542958
Device ID:00-80-00-00-04-00-98-02 | Tx Time: 1569542960
Device ID:00-80-00-00-00-00-fe-37 | Tx Time: 1569542962
Device ID:00-80-00-00-04-00-98-2b | Tx Time: 1569542970
Device ID:00-80-00-00-00-00-fe-36 | Tx Time: 1569542963
Device ID:00-80-00-00-00-00-fe-37 | Tx Time: 1569542973
Device ID:00-80-00-00-04-00-98-02 | Tx Time: 1569542972
Device ID:00-80-00-00-04-00-98-2b | Tx Time: 1569542983
Device ID:00-80-00-00-00-00-fe-36 | Tx Time: 1569542976
Device ID:00-80-00-00-04-00-98-02 | Tx Time: 1569542983
Device ID:00-80-00-00-00-00-fe-37 | Tx Time: 1569542986
Device ID:00-80-00-00-04-00-98-2b | Tx Time: 1569542994
Device ID:00-80-00-00-04-00-98-02 | Tx Time: 1569542995
Device ID:00-80-00-00-00-00-fe-37 | Tx Time: 1569542998
Device ID:00-80-00-00-04-00-98-2b | Tx Time: 1569543006
Device ID:00-80-00-00-04-00-98-02 | Tx Time: 1569543007
Device ID:00-80-00-00-00-00-fe-37 | Tx Time: 1569543009
Device ID:00-80-00-00-04-00-98-2b | Tx Time: 1569543018
Device ID:00-80-00-00-04-00-98-02 | Tx Time: 1569543019
Device ID:00-80-00-00-00-00-fe-37 | Tx Time: 1569543022
Device ID:00-80-00-00-04-00-98-2b | Tx Time: 1569543029
Device ID:00-80-00-00-00-00-fe-36 | Tx Time: 1569543027
Device ID:00-80-00-00-04-00-98-02 | Tx Time: 1569543031
Device ID:00-80-00-00-00-00-fe-37 | Tx Time: 1569543034
Device ID:00-80-00-00-04-00-98-2b | Tx Time: 1569543041
Device ID:00-80-00-00-04-00-98-02 | Tx Time: 1569543043
Device ID:00-80-00-00-00-00-fe-37 | Tx Time: 1569543045
Device ID:00-80-00-00-04-00-98-2b | Tx Time: 1569543053
Device ID:00-80-00-00-04-00-98-02 | Tx Time: 1569543054
Device ID:00-80-00-00-04-00-98-2b | Tx Time: 1569543064
Device ID:00-80-00-00-00-00-fe-37 | Tx Time: 1569543058
Device ID:00-80-00-00-04-00-98-02 | Tx Time: 1569543066
Device ID:00-80-00-00-04-00-98-2b | Tx Time: 1569543077
Device ID:00-80-00-00-00-00-fe-37 | Tx Time: 1569543070
Device ID:00-80-00-00-04-00-98-02 | Tx Time: 1569543079
Device ID:00-80-00-00-00-00-fe-37 | Tx Time: 1569543081
Device ID:00-80-00-00-04-00-98-2b | Tx Time: 1569543089
Device ID:00-80-00-00-04-00-98-02 | Tx Time: 1569543090
Device ID:00-80-00-00-04-00-98-2b | Tx Time: 1569543100
Device ID:00-80-00-00-00-00-fe-37 | Tx Time: 1569543093
Device ID:00-80-00-00-04-00-98-02 | Tx Time: 1569543102
Device ID:00-80-00-00-04-00-98-2b | Tx Time: 1569543112
Device ID:00-80-00-00-00-00-fe-37 | Tx Time: 1569543106
Device ID:00-80-00-00-04-00-98-02 | Tx Time: 1569543114
Device ID:00-80-00-00-04-00-98-2b | Tx Time: 1569543124
Device ID:00-80-00-00-04-00-98-02 | Tx Time: 1569543125
Device ID:00-80-00-00-04-00-98-2b | Tx Time: 1569543135
Device ID:00-80-00-00-00-00-fe-37 | Tx Time: 1569543129
Device ID:00-80-00-00-04-00-98-02 | Tx Time: 1569543138
Device ID:00-80-00-00-04-00-98-2b | Tx Time: 1569543147
Device ID:00-80-00-00-00-00-fe-37 | Tx Time: 1569543142
Device ID:00-80-00-00-04-00-98-02 | Tx Time: 1569543150
Device ID:00-80-00-00-04-00-98-2b | Tx Time: 1569543159
Device ID:00-80-00-00-00-00-fe-37 | Tx Time: 1569543153
Device ID:00-80-00-00-04-00-98-02 | Tx Time: 1569543161
Device ID:00-80-00-00-04-00-98-2b | Tx Time: 1569543171
Device ID:00-80-00-00-00-00-fe-37 | Tx Time: 1569543165
Device ID:00-80-00-00-04-00-98-02 | Tx Time: 1569543173
Device ID:00-80-00-00-04-00-98-2b | Tx Time: 1569543183
Device ID:00-80-00-00-00-00-fe-37 | Tx Time: 1569543177
Device ID:00-80-00-00-00-00-fe-36 | Tx Time: 1569543179
Device ID:00-80-00-00-04-00-98-02 | Tx Time: 1569543185
Device ID:00-80-00-00-04-00-98-2b | Tx Time: 1569543195
Device ID:00-80-00-00-00-00-fe-37 | Tx Time: 1569543189
Device ID:00-80-00-00-00-00-fe-36 | Tx Time: 1569543192
Device ID:00-80-00-00-04-00-98-02 | Tx Time: 1569543197
Device ID:00-80-00-00-04-00-98-2b | Tx Time: 1569543206
Device ID:00-80-00-00-00-00-fe-37 | Tx Time: 1569543201
Device ID:00-80-00-00-04-00-98-02 | Tx Time: 1569543209
Device ID:00-80-00-00-04-00-98-2b | Tx Time: 1569543218
Device ID:00-80-00-00-00-00-fe-37 | Tx Time: 1569543213
Device ID:00-80-00-00-00-00-fe-36 | Tx Time: 1569543214
Device ID:00-80-00-00-04-00-98-02 | Tx Time: 1569543221
Device ID:00-80-00-00-04-00-98-2b | Tx Time: 1569543230
Device ID:00-80-00-00-00-00-fe-37 | Tx Time: 1569543225
Device ID:00-80-00-00-00-00-fe-36 | Tx Time: 1569543227
Device ID:00-80-00-00-04-00-98-02 | Tx Time: 1569543232
Device ID:00-80-00-00-04-00-98-2b | Tx Time: 1569543241
Device ID:00-80-00-00-00-00-fe-37 | Tx Time: 1569543237
Device ID:00-80-00-00-04-00-98-02 | Tx Time: 1569543244
Device ID:00-80-00-00-04-00-98-2b | Tx Time: 1569543253
Device ID:00-80-00-00-00-00-fe-37 | Tx Time: 1569543249
Device ID:00-80-00-00-00-00-fe-36 | Tx Time: 1569543249
Device ID:00-80-00-00-04-00-98-2b | Tx Time: 1569543266
Device ID:00-80-00-00-04-00-98-02 | Tx Time: 1569543256
Device ID:00-80-00-00-00-00-fe-37 | Tx Time: 1569543260
Device ID:00-80-00-00-00-00-fe-36 | Tx Time: 1569543262
Device ID:00-80-00-00-04-00-98-02 | Tx Time: 1569543268
Device ID:00-80-00-00-04-00-98-2b | Tx Time: 1569543278
Device ID:00-80-00-00-00-00-fe-37 | Tx Time: 1569543273
Device ID:00-80-00-00-04-00-98-02 | Tx Time: 1569543280
Device ID:00-80-00-00-04-00-98-2b | Tx Time: 1569543290
Device ID:00-80-00-00-00-00-fe-36 | Tx Time: 1569543284
Device ID:00-80-00-00-00-00-fe-37 | Tx Time: 1569543285
Device ID:00-80-00-00-04-00-98-02 | Tx Time: 1569543292
Device ID:00-80-00-00-04-00-98-2b | Tx Time: 1569543302
Device ID:00-80-00-00-00-00-fe-37 | Tx Time: 1569543296
Device ID:00-80-00-00-00-00-fe-36 | Tx Time: 1569543297
Device ID:00-80-00-00-04-00-98-02 | Tx Time: 1569543303
Device ID:00-80-00-00-04-00-98-2b | Tx Time: 1569543313
Device ID:00-80-00-00-00-00-fe-37 | Tx Time: 1569543309
Device ID:00-80-00-00-04-00-98-02 | Tx Time: 1569543315
Device ID:00-80-00-00-04-00-98-2b | Tx Time: 1569543325
Device ID:00-80-00-00-00-00-fe-36 | Tx Time: 1569543319
Device ID:00-80-00-00-00-00-fe-37 | Tx Time: 1569543321
Device ID:00-80-00-00-04-00-98-02 | Tx Time: 1569543328
Device ID:00-80-00-00-04-00-98-2b | Tx Time: 1569543337
Device ID:00-80-00-00-00-00-fe-36 | Tx Time: 1569543332
Device ID:00-80-00-00-00-00-fe-37 | Tx Time: 1569543332
Device ID:00-80-00-00-04-00-98-02 | Tx Time: 1569543339
Device ID:00-80-00-00-04-00-98-2b | Tx Time: 1569543349
Device ID:00-80-00-00-00-00-fe-37 | Tx Time: 1569543344
Device ID:00-80-00-00-04-00-98-02 | Tx Time: 1569543351
Device ID:00-80-00-00-04-00-98-2b | Tx Time: 1569543361
Device ID:00-80-00-00-00-00-fe-36 | Tx Time: 1569543354
Device ID:00-80-00-00-00-00-fe-37 | Tx Time: 1569543357
Device ID:00-80-00-00-04-00-98-02 | Tx Time: 1569543363
Device ID:00-80-00-00-04-00-98-2b | Tx Time: 1569543373
Device ID:00-80-00-00-00-00-fe-36 | Tx Time: 1569543367
Device ID:00-80-00-00-00-00-fe-37 | Tx Time: 1569543368
Device ID:00-80-00-00-04-00-98-02 | Tx Time: 1569543374
Device ID:00-80-00-00-04-00-98-2b | Tx Time: 1569543384
Device ID:00-80-00-00-04-00-98-02 | Tx Time: 1569543387
Device ID:00-80-00-00-04-00-98-2b | Tx Time: 1569543396
Device ID:00-80-00-00-00-00-fe-36 | Tx Time: 1569543389
Device ID:00-80-00-00-00-00-fe-37 | Tx Time: 1569543393
Device ID:00-80-00-00-04-00-98-02 | Tx Time: 1569543399
Device ID:00-80-00-00-04-00-98-2b | Tx Time: 1569543408
Device ID:00-80-00-00-00-00-fe-37 | Tx Time: 1569543404
Device ID:00-80-00-00-04-00-98-02 | Tx Time: 1569543410
Device ID:00-80-00-00-04-00-98-2b | Tx Time: 1569543419
Device ID:00-80-00-00-04-00-98-02 | Tx Time: 1569543422
Device ID:00-80-00-00-04-00-98-2b | Tx Time: 1569543431
Device ID:00-80-00-00-00-00-fe-36 | Tx Time: 1569543424
Device ID:00-80-00-00-00-00-fe-37 | Tx Time: 1569543428
Device ID:00-80-00-00-04-00-98-02 | Tx Time: 1569543434
Device ID:00-80-00-00-04-00-98-2b | Tx Time: 1569543443
Device ID:00-80-00-00-00-00-fe-36 | Tx Time: 1569543437
Device ID:00-80-00-00-00-00-fe-37 | Tx Time: 1569543439
Device ID:00-80-00-00-04-00-98-02 | Tx Time: 1569543446
Device ID:00-80-00-00-04-00-98-2b | Tx Time: 1569543455
Device ID:00-80-00-00-00-00-fe-37 | Tx Time: 1569543450
Device ID:00-80-00-00-04-00-98-02 | Tx Time: 1569543458
Device ID:00-80-00-00-00-00-fe-36 | Tx Time: 1569543459
Device ID:00-80-00-00-04-00-98-2b | Tx Time: 1569543467
Device ID:00-80-00-00-00-00-fe-37 | Tx Time: 1569543461
Device ID:00-80-00-00-04-00-98-2b | Tx Time: 1569543479
Device ID:00-80-00-00-00-00-fe-37 | Tx Time: 1569543473
Device ID:00-80-00-00-04-00-98-2b | Tx Time: 1569543490
Device ID:00-80-00-00-04-00-98-02 | Tx Time: 1569543482
Device ID:00-80-00-00-00-00-fe-37 | Tx Time: 1569543484
Device ID:00-80-00-00-00-00-fe-36 | Tx Time: 1569543494
Device ID:00-80-00-00-04-00-98-2b | Tx Time: 1569543502
Device ID:00-80-00-00-00-00-fe-37 | Tx Time: 1569543495
Device ID:00-80-00-00-04-00-98-02 | Tx Time: 1569543494
Device ID:00-80-00-00-04-00-98-2b | Tx Time: 1569543514
Device ID:00-80-00-00-00-00-fe-37 | Tx Time: 1569543508
Device ID:00-80-00-00-04-00-98-2b | Tx Time: 1569543525
Device ID:00-80-00-00-00-00-fe-37 | Tx Time: 1569543519
Device ID:00-80-00-00-04-00-98-02 | Tx Time: 1569543519
Device ID:00-80-00-00-00-00-fe-37 | Tx Time: 1569543530
Device ID:00-80-00-00-04-00-98-2b | Tx Time: 1569543538
Device ID:00-80-00-00-04-00-98-02 | Tx Time: 1569543531
Device ID:00-80-00-00-00-00-fe-37 | Tx Time: 1569543541
Device ID:00-80-00-00-04-00-98-02 | Tx Time: 1569543542
Device ID:00-80-00-00-00-00-fe-37 | Tx Time: 1569543553
Device ID:00-80-00-00-04-00-98-2b | Tx Time: 1569543562
Device ID:00-80-00-00-04-00-98-02 | Tx Time: 1569543553
Device ID:00-80-00-00-00-00-fe-37 | Tx Time: 1569543564
Device ID:00-80-00-00-04-00-98-02 | Tx Time: 1569543564
Device ID:00-80-00-00-04-00-98-2b | Tx Time: 1569543574
Device ID:00-80-00-00-00-00-fe-37 | Tx Time: 1569543575
Device ID:00-80-00-00-04-00-98-02 | Tx Time: 1569543576
Device ID:00-80-00-00-04-00-98-2b | Tx Time: 1569543586
Device ID:00-80-00-00-00-00-fe-37 | Tx Time: 1569543587
Device ID:00-80-00-00-04-00-98-02 | Tx Time: 1569543587
Device ID:00-80-00-00-04-00-98-2b | Tx Time: 1569543597
Device ID:00-80-00-00-00-00-fe-37 | Tx Time: 1569543598
Device ID:00-80-00-00-04-00-98-02 | Tx Time: 1569543598
Device ID:00-80-00-00-04-00-98-2b | Tx Time: 1569543609
Device ID:00-80-00-00-00-00-fe-37 | Tx Time: 1569543609
Device ID:00-80-00-00-04-00-98-02 | Tx Time: 1569543609
Device ID:00-80-00-00-04-00-98-2b | Tx Time: 1569543621
Device ID:00-80-00-00-00-00-fe-37 | Tx Time: 1569543621
Device ID:00-80-00-00-04-00-98-02 | Tx Time: 1569543620
Device ID:00-80-00-00-04-00-98-2b | Tx Time: 1569543633
Device ID:00-80-00-00-00-00-fe-37 | Tx Time: 1569543633
Device ID:00-80-00-00-04-00-98-02 | Tx Time: 1569543632
Device ID:00-80-00-00-04-00-98-2b | Tx Time: 1569543645
Device ID:00-80-00-00-00-00-fe-37 | Tx Time: 1569543644
Device ID:00-80-00-00-04-00-98-02 | Tx Time: 1569543643
Device ID:00-80-00-00-04-00-98-2b | Tx Time: 1569543657
Device ID:00-80-00-00-04-00-98-02 | Tx Time: 1569543654
Device ID:00-80-00-00-00-00-fe-37 | Tx Time: 1569543656
Device ID:00-80-00-00-00-00-fe-36 | Tx Time: 1569543656
Device ID:00-80-00-00-04-00-98-2b | Tx Time: 1569543668
Device ID:00-80-00-00-04-00-98-02 | Tx Time: 1569543665
Device ID:00-80-00-00-00-00-fe-37 | Tx Time: 1569543669
Device ID:00-80-00-00-04-00-98-2b | Tx Time: 1569543680
Device ID:00-80-00-00-04-00-98-02 | Tx Time: 1569543676
Device ID:00-80-00-00-00-00-fe-36 | Tx Time: 1569543679
Device ID:00-80-00-00-00-00-fe-37 | Tx Time: 1569543680
Device ID:00-80-00-00-04-00-98-2b | Tx Time: 1569543692
Device ID:00-80-00-00-04-00-98-02 | Tx Time: 1569543688
Device ID:00-80-00-00-00-00-fe-36 | Tx Time: 1569543691
Device ID:00-80-00-00-00-00-fe-37 | Tx Time: 1569543692
Device ID:00-80-00-00-04-00-98-2b | Tx Time: 1569543703
Device ID:00-80-00-00-04-00-98-02 | Tx Time: 1569543699
Device ID:00-80-00-00-00-00-fe-37 | Tx Time: 1569543705
Device ID:00-80-00-00-04-00-98-2b | Tx Time: 1569543715
Device ID:00-80-00-00-04-00-98-02 | Tx Time: 1569543710
Device ID:00-80-00-00-00-00-fe-36 | Tx Time: 1569543714
Device ID:00-80-00-00-00-00-fe-37 | Tx Time: 1569543716
Device ID:00-80-00-00-04-00-98-2b | Tx Time: 1569543728
Device ID:00-80-00-00-04-00-98-02 | Tx Time: 1569543721
Device ID:00-80-00-00-00-00-fe-36 | Tx Time: 1569543726
Device ID:00-80-00-00-00-00-fe-37 | Tx Time: 1569543728
Device ID:00-80-00-00-04-00-98-2b | Tx Time: 1569543739
Device ID:00-80-00-00-04-00-98-02 | Tx Time: 1569543733
Device ID:00-80-00-00-00-00-fe-37 | Tx Time: 1569543740
Device ID:00-80-00-00-04-00-98-2b | Tx Time: 1569543751
Device ID:00-80-00-00-04-00-98-02 | Tx Time: 1569543746
Device ID:00-80-00-00-00-00-fe-36 | Tx Time: 1569543749
Device ID:00-80-00-00-00-00-fe-37 | Tx Time: 1569543752
Device ID:00-80-00-00-04-00-98-2b | Tx Time: 1569543763
Device ID:00-80-00-00-04-00-98-02 | Tx Time: 1569543757
Device ID:00-80-00-00-00-00-fe-36 | Tx Time: 1569543761
Device ID:00-80-00-00-00-00-fe-37 | Tx Time: 1569543764
Device ID:00-80-00-00-04-00-98-2b | Tx Time: 1569543774
Device ID:00-80-00-00-04-00-98-02 | Tx Time: 1569543769
Device ID:00-80-00-00-00-00-fe-37 | Tx Time: 1569543776
Device ID:00-80-00-00-04-00-98-2b | Tx Time: 1569543786
Device ID:00-80-00-00-04-00-98-02 | Tx Time: 1569543781
Device ID:00-80-00-00-00-00-fe-37 | Tx Time: 1569543788
Device ID:00-80-00-00-04-00-98-2b | Tx Time: 1569543798
Device ID:00-80-00-00-04-00-98-02 | Tx Time: 1569543792
Device ID:00-80-00-00-00-00-fe-36 | Tx Time: 1569543796
Device ID:00-80-00-00-00-00-fe-37 | Tx Time: 1569543800
Device ID:00-80-00-00-04-00-98-2b | Tx Time: 1569543809
Device ID:00-80-00-00-04-00-98-02 | Tx Time: 1569543805
Device ID:00-80-00-00-00-00-fe-37 | Tx Time: 1569543812
Device ID:00-80-00-00-04-00-98-2b | Tx Time: 1569543822
Device ID:00-80-00-00-04-00-98-02 | Tx Time: 1569543817
Device ID:00-80-00-00-00-00-fe-36 | Tx Time: 1569543818
Device ID:00-80-00-00-00-00-fe-37 | Tx Time: 1569543823
Device ID:00-80-00-00-04-00-98-2b | Tx Time: 1569543834
Device ID:00-80-00-00-04-00-98-02 | Tx Time: 1569543828
Device ID:00-80-00-00-00-00-fe-36 | Tx Time: 1569543831
Device ID:00-80-00-00-00-00-fe-37 | Tx Time: 1569543836
Device ID:00-80-00-00-04-00-98-2b | Tx Time: 1569543845
Device ID:00-80-00-00-04-00-98-02 | Tx Time: 1569543840
Device ID:00-80-00-00-00-00-fe-37 | Tx Time: 1569543848
Device ID:00-80-00-00-04-00-98-2b | Tx Time: 1569543857
Device ID:00-80-00-00-00-00-fe-36 | Tx Time: 1569543853
Device ID:00-80-00-00-04-00-98-02 | Tx Time: 1569543852
Device ID:00-80-00-00-00-00-fe-37 | Tx Time: 1569543859
Device ID:00-80-00-00-04-00-98-2b | Tx Time: 1569543869
Device ID:00-80-00-00-04-00-98-02 | Tx Time: 1569543864
Device ID:00-80-00-00-00-00-fe-36 | Tx Time: 1569543866
Device ID:00-80-00-00-00-00-fe-37 | Tx Time: 1569543872
Device ID:00-80-00-00-04-00-98-2b | Tx Time: 1569543880
Device ID:00-80-00-00-04-00-98-02 | Tx Time: 1569543876
Device ID:00-80-00-00-00-00-fe-37 | Tx Time: 1569543884
Device ID:00-80-00-00-04-00-98-2b | Tx Time: 1569543892
Device ID:00-80-00-00-00-00-fe-36 | Tx Time: 1569543888
Device ID:00-80-00-00-04-00-98-02 | Tx Time: 1569543888
Device ID:00-80-00-00-00-00-fe-37 | Tx Time: 1569543895
Device ID:00-80-00-00-04-00-98-2b | Tx Time: 1569543904
Device ID:00-80-00-00-04-00-98-02 | Tx Time: 1569543899
Device ID:00-80-00-00-00-00-fe-36 | Tx Time: 1569543901
Device ID:00-80-00-00-00-00-fe-37 | Tx Time: 1569543908
Device ID:00-80-00-00-04-00-98-2b | Tx Time: 1569543916
Device ID:00-80-00-00-04-00-98-02 | Tx Time: 1569543911
Device ID:00-80-00-00-00-00-fe-37 | Tx Time: 1569543920
Device ID:00-80-00-00-04-00-98-2b | Tx Time: 1569543928
Device ID:00-80-00-00-00-00-fe-36 | Tx Time: 1569543923
Device ID:00-80-00-00-04-00-98-02 | Tx Time: 1569543923
Device ID:00-80-00-00-00-00-fe-37 | Tx Time: 1569543931
Device ID:00-80-00-00-04-00-98-2b | Tx Time: 1569543940
Device ID:00-80-00-00-00-00-fe-36 | Tx Time: 1569543936
Device ID:00-80-00-00-04-00-98-02 | Tx Time: 1569543935
Device ID:00-80-00-00-00-00-fe-37 | Tx Time: 1569543943
Device ID:00-80-00-00-04-00-98-2b | Tx Time: 1569543951
Device ID:00-80-00-00-00-00-fe-37 | Tx Time: 1569543956
Device ID:00-80-00-00-04-00-98-2b | Tx Time: 1569543963
Device ID:00-80-00-00-00-00-fe-36 | Tx Time: 1569543958
Device ID:00-80-00-00-04-00-98-02 | Tx Time: 1569543959
Device ID:00-80-00-00-00-00-fe-37 | Tx Time: 1569543967
Device ID:00-80-00-00-04-00-98-2b | Tx Time: 1569543975
Device ID:00-80-00-00-00-00-fe-36 | Tx Time: 1569543971
Device ID:00-80-00-00-04-00-98-02 | Tx Time: 1569543970
Device ID:00-80-00-00-04-00-98-2b | Tx Time: 1569543986
Device ID:00-80-00-00-00-00-fe-37 | Tx Time: 1569543979
Device ID:00-80-00-00-04-00-98-02 | Tx Time: 1569543982
Device ID:00-80-00-00-00-00-fe-37 | Tx Time: 1569543992
Device ID:00-80-00-00-00-00-fe-36 | Tx Time: 1569543993
Device ID:00-80-00-00-04-00-98-02 | Tx Time: 1569543995
Device ID:00-80-00-00-00-00-fe-37 | Tx Time: 1569544003
Device ID:00-80-00-00-04-00-98-2b | Tx Time: 1569544011
Device ID:00-80-00-00-00-00-fe-36 | Tx Time: 1569544006
Device ID:00-80-00-00-04-00-98-02 | Tx Time: 1569544006
Device ID:00-80-00-00-04-00-98-2b | Tx Time: 1569544022
Device ID:00-80-00-00-00-00-fe-37 | Tx Time: 1569544015
Device ID:00-80-00-00-04-00-98-02 | Tx Time: 1569544018
Device ID:00-80-00-00-04-00-98-2b | Tx Time: 1569544034
Device ID:00-80-00-00-00-00-fe-37 | Tx Time: 1569544027
Device ID:00-80-00-00-04-00-98-02 | Tx Time: 1569544030
Device ID:00-80-00-00-00-00-fe-37 | Tx Time: 1569544039
Device ID:00-80-00-00-04-00-98-2b | Tx Time: 1569544046
Device ID:00-80-00-00-00-00-fe-36 | Tx Time: 1569544041
Device ID:00-80-00-00-04-00-98-02 | Tx Time: 1569544041
Device ID:00-80-00-00-04-00-98-2b | Tx Time: 1569544057
Device ID:00-80-00-00-00-00-fe-37 | Tx Time: 1569544051
Device ID:00-80-00-00-04-00-98-02 | Tx Time: 1569544054
Device ID:00-80-00-00-04-00-98-2b | Tx Time: 1569544069
Device ID:00-80-00-00-00-00-fe-37 | Tx Time: 1569544063
Device ID:00-80-00-00-00-00-fe-36 | Tx Time: 1569544063
Device ID:00-80-00-00-04-00-98-02 | Tx Time: 1569544066
Device ID:00-80-00-00-04-00-98-2b | Tx Time: 1569544081
Device ID:00-80-00-00-00-00-fe-37 | Tx Time: 1569544075
Device ID:00-80-00-00-04-00-98-02 | Tx Time: 1569544077
Device ID:00-80-00-00-04-00-98-2b | Tx Time: 1569544092
Device ID:00-80-00-00-00-00-fe-37 | Tx Time: 1569544087
Device ID:00-80-00-00-04-00-98-02 | Tx Time: 1569544089
Device ID:00-80-00-00-04-00-98-2b | Tx Time: 1569544105
Device ID:00-80-00-00-00-00-fe-36 | Tx Time: 1569544098
Device ID:00-80-00-00-00-00-fe-37 | Tx Time: 1569544099
Device ID:00-80-00-00-04-00-98-02 | Tx Time: 1569544101
Device ID:00-80-00-00-04-00-98-2b | Tx Time: 1569544117
Device ID:00-80-00-00-00-00-fe-37 | Tx Time: 1569544110
Device ID:00-80-00-00-00-00-fe-36 | Tx Time: 1569544111
Device ID:00-80-00-00-04-00-98-02 | Tx Time: 1569544113
Device ID:00-80-00-00-04-00-98-2b | Tx Time: 1569544128
Device ID:00-80-00-00-00-00-fe-37 | Tx Time: 1569544123
Device ID:00-80-00-00-04-00-98-02 | Tx Time: 1569544125
Device ID:00-80-00-00-04-00-98-2b | Tx Time: 1569544140
Device ID:00-80-00-00-00-00-fe-36 | Tx Time: 1569544133
Device ID:00-80-00-00-00-00-fe-37 | Tx Time: 1569544135
Device ID:00-80-00-00-04-00-98-02 | Tx Time: 1569544137
Device ID:00-80-00-00-04-00-98-2b | Tx Time: 1569544152
Device ID:00-80-00-00-00-00-fe-37 | Tx Time: 1569544146
Device ID:00-80-00-00-04-00-98-02 | Tx Time: 1569544148
Device ID:00-80-00-00-04-00-98-2b | Tx Time: 1569544163
Device ID:00-80-00-00-00-00-fe-37 | Tx Time: 1569544159
Device ID:00-80-00-00-04-00-98-02 | Tx Time: 1569544160
Device ID:00-80-00-00-04-00-98-2b | Tx Time: 1569544175
Device ID:00-80-00-00-00-00-fe-36 | Tx Time: 1569544168
Device ID:00-80-00-00-00-00-fe-37 | Tx Time: 1569544171
Device ID:00-80-00-00-04-00-98-02 | Tx Time: 1569544172
Device ID:00-80-00-00-04-00-98-2b | Tx Time: 1569544187
Device ID:00-80-00-00-00-00-fe-37 | Tx Time: 1569544182
Device ID:00-80-00-00-04-00-98-02 | Tx Time: 1569544184
Device ID:00-80-00-00-04-00-98-2b | Tx Time: 1569544199
Device ID:00-80-00-00-00-00-fe-37 | Tx Time: 1569544194
Device ID:00-80-00-00-04-00-98-02 | Tx Time: 1569544196
Device ID:00-80-00-00-04-00-98-2b | Tx Time: 1569544211
Device ID:00-80-00-00-00-00-fe-37 | Tx Time: 1569544207
Device ID:00-80-00-00-04-00-98-02 | Tx Time: 1569544208
Device ID:00-80-00-00-04-00-98-2b | Tx Time: 1569544223
Device ID:00-80-00-00-00-00-fe-37 | Tx Time: 1569544218
Device ID:00-80-00-00-04-00-98-2b | Tx Time: 1569544234
Device ID:00-80-00-00-00-00-fe-37 | Tx Time: 1569544230
Device ID:00-80-00-00-04-00-98-02 | Tx Time: 1569544231
Device ID:00-80-00-00-04-00-98-2b | Tx Time: 1569544246
Device ID:00-80-00-00-00-00-fe-37 | Tx Time: 1569544243
Device ID:00-80-00-00-04-00-98-02 | Tx Time: 1569544244
Device ID:00-80-00-00-00-00-fe-37 | Tx Time: 1569544254
Device ID:00-80-00-00-04-00-98-02 | Tx Time: 1569544255
Device ID:00-80-00-00-04-00-98-2b | Tx Time: 1569544270
Device ID:00-80-00-00-00-00-fe-37 | Tx Time: 1569544266
Device ID:00-80-00-00-04-00-98-02 | Tx Time: 1569544267
Device ID:00-80-00-00-04-00-98-2b | Tx Time: 1569544282
Device ID:00-80-00-00-00-00-fe-37 | Tx Time: 1569544278
Device ID:00-80-00-00-04-00-98-02 | Tx Time: 1569544279
Device ID:00-80-00-00-04-00-98-2b | Tx Time: 1569544294
Device ID:00-80-00-00-00-00-fe-37 | Tx Time: 1569544290
Device ID:00-80-00-00-04-00-98-02 | Tx Time: 1569544290
Device ID:00-80-00-00-04-00-98-2b | Tx Time: 1569544305
Device ID:00-80-00-00-00-00-fe-37 | Tx Time: 1569544302
Device ID:00-80-00-00-04-00-98-02 | Tx Time: 1569544303
Device ID:00-80-00-00-04-00-98-2b | Tx Time: 1569544316
Device ID:00-80-00-00-00-00-fe-37 | Tx Time: 1569544314
Device ID:00-80-00-00-04-00-98-02 | Tx Time: 1569544315
Device ID:00-80-00-00-04-00-98-2b | Tx Time: 1569544327
Device ID:00-80-00-00-00-00-fe-37 | Tx Time: 1569544326
Device ID:00-80-00-00-04-00-98-02 | Tx Time: 1569544326
Device ID:00-80-00-00-04-00-98-2b | Tx Time: 1569544338
Device ID:00-80-00-00-00-00-fe-37 | Tx Time: 1569544338
Device ID:00-80-00-00-04-00-98-02 | Tx Time: 1569544338
Device ID:00-80-00-00-04-00-98-2b | Tx Time: 1569544349
Device ID:00-80-00-00-00-00-fe-37 | Tx Time: 1569544350
Device ID:00-80-00-00-00-00-fe-36 | Tx Time: 1569544350
Device ID:00-80-00-00-04-00-98-02 | Tx Time: 1569544350
Device ID:00-80-00-00-04-00-98-2b | Tx Time: 1569544361
Device ID:00-80-00-00-00-00-fe-37 | Tx Time: 1569544362
Device ID:00-80-00-00-00-00-fe-36 | Tx Time: 1569544363
Device ID:00-80-00-00-04-00-98-2b | Tx Time: 1569544373
Device ID:00-80-00-00-00-00-fe-37 | Tx Time: 1569544374
Device ID:00-80-00-00-04-00-98-2b | Tx Time: 1569544384
Device ID:00-80-00-00-00-00-fe-36 | Tx Time: 1569544385
Device ID:00-80-00-00-00-00-fe-37 | Tx Time: 1569544386
Device ID:00-80-00-00-04-00-98-02 | Tx Time: 1569544386
Device ID:00-80-00-00-04-00-98-2b | Tx Time: 1569544395
Device ID:00-80-00-00-00-00-fe-37 | Tx Time: 1569544397
Device ID:00-80-00-00-00-00-fe-36 | Tx Time: 1569544398
Device ID:00-80-00-00-04-00-98-02 | Tx Time: 1569544397
Device ID:00-80-00-00-04-00-98-2b | Tx Time: 1569544406
Device ID:00-80-00-00-00-00-fe-37 | Tx Time: 1569544410
Device ID:00-80-00-00-04-00-98-02 | Tx Time: 1569544408
Device ID:00-80-00-00-04-00-98-2b | Tx Time: 1569544418
Device ID:00-80-00-00-00-00-fe-36 | Tx Time: 1569544420
Device ID:00-80-00-00-04-00-98-02 | Tx Time: 1569544419
Device ID:00-80-00-00-04-00-98-2b | Tx Time: 1569544429
Device ID:00-80-00-00-04-00-98-02 | Tx Time: 1569544431
Device ID:00-80-00-00-04-00-98-2b | Tx Time: 1569544440
Device ID:00-80-00-00-00-00-fe-37 | Tx Time: 1569544434
Device ID:00-80-00-00-04-00-98-02 | Tx Time: 1569544442
Device ID:00-80-00-00-04-00-98-2b | Tx Time: 1569544453
Device ID:00-80-00-00-00-00-fe-37 | Tx Time: 1569544447
Device ID:00-80-00-00-04-00-98-02 | Tx Time: 1569544453
Device ID:00-80-00-00-04-00-98-2b | Tx Time: 1569544465
Device ID:00-80-00-00-00-00-fe-37 | Tx Time: 1569544459
Device ID:00-80-00-00-04-00-98-02 | Tx Time: 1569544464
Device ID:00-80-00-00-04-00-98-2b | Tx Time: 1569544476
Device ID:00-80-00-00-00-00-fe-37 | Tx Time: 1569544470
Device ID:00-80-00-00-04-00-98-02 | Tx Time: 1569544475
Device ID:00-80-00-00-04-00-98-2b | Tx Time: 1569544488
Device ID:00-80-00-00-00-00-fe-37 | Tx Time: 1569544482
Device ID:00-80-00-00-04-00-98-02 | Tx Time: 1569544487
Device ID:00-80-00-00-04-00-98-2b | Tx Time: 1569544500
Device ID:00-80-00-00-00-00-fe-37 | Tx Time: 1569544495
Device ID:00-80-00-00-04-00-98-02 | Tx Time: 1569544498
Device ID:00-80-00-00-00-00-fe-37 | Tx Time: 1569544506
Device ID:00-80-00-00-04-00-98-02 | Tx Time: 1569544509
Device ID:00-80-00-00-04-00-98-2b | Tx Time: 1569544523
Device ID:00-80-00-00-00-00-fe-37 | Tx Time: 1569544518
Device ID:00-80-00-00-04-00-98-02 | Tx Time: 1569544520
Device ID:00-80-00-00-04-00-98-2b | Tx Time: 1569544535
Device ID:00-80-00-00-00-00-fe-37 | Tx Time: 1569544531
Device ID:00-80-00-00-04-00-98-02 | Tx Time: 1569544531
Device ID:00-80-00-00-04-00-98-2b | Tx Time: 1569544547
Device ID:00-80-00-00-00-00-fe-37 | Tx Time: 1569544542
Device ID:00-80-00-00-04-00-98-02 | Tx Time: 1569544543
Device ID:00-80-00-00-04-00-98-2b | Tx Time: 1569544559
Device ID:00-80-00-00-00-00-fe-37 | Tx Time: 1569544554
Device ID:00-80-00-00-04-00-98-02 | Tx Time: 1569544554
Device ID:00-80-00-00-04-00-98-2b | Tx Time: 1569544571
Device ID:00-80-00-00-00-00-fe-37 | Tx Time: 1569544566
Device ID:00-80-00-00-04-00-98-02 | Tx Time: 1569544565
Device ID:00-80-00-00-00-00-fe-36 | Tx Time: 1569544572
Device ID:00-80-00-00-04-00-98-2b | Tx Time: 1569544582
Device ID:00-80-00-00-00-00-fe-37 | Tx Time: 1569544578
Device ID:00-80-00-00-04-00-98-02 | Tx Time: 1569544576
Device ID:00-80-00-00-00-00-fe-36 | Tx Time: 1569544585
Device ID:00-80-00-00-04-00-98-2b | Tx Time: 1569544594
Device ID:00-80-00-00-04-00-98-02 | Tx Time: 1569544587
Device ID:00-80-00-00-00-00-fe-37 | Tx Time: 1569544590
Device ID:00-80-00-00-04-00-98-02 | Tx Time: 1569544599
Device ID:00-80-00-00-00-00-fe-37 | Tx Time: 1569544602
Device ID:00-80-00-00-00-00-fe-36 | Tx Time: 1569544607
Device ID:00-80-00-00-04-00-98-2b | Tx Time: 1569544618
Device ID:00-80-00-00-04-00-98-02 | Tx Time: 1569544610
Device ID:00-80-00-00-00-00-fe-37 | Tx Time: 1569544614
Device ID:00-80-00-00-00-00-fe-36 | Tx Time: 1569544620
Device ID:00-80-00-00-04-00-98-2b | Tx Time: 1569544630
Device ID:00-80-00-00-04-00-98-02 | Tx Time: 1569544622
Device ID:00-80-00-00-00-00-fe-37 | Tx Time: 1569544626
Device ID:00-80-00-00-04-00-98-02 | Tx Time: 1569544633
Device ID:00-80-00-00-04-00-98-2b | Tx Time: 1569544643
Device ID:00-80-00-00-00-00-fe-37 | Tx Time: 1569544638
Device ID:00-80-00-00-00-00-fe-36 | Tx Time: 1569544642
Device ID:00-80-00-00-04-00-98-2b | Tx Time: 1569544654
Device ID:00-80-00-00-04-00-98-02 | Tx Time: 1569544645
Device ID:00-80-00-00-00-00-fe-37 | Tx Time: 1569544649
Device ID:00-80-00-00-00-00-fe-36 | Tx Time: 1569544655
Device ID:00-80-00-00-04-00-98-2b | Tx Time: 1569544665
Device ID:00-80-00-00-04-00-98-02 | Tx Time: 1569544658
Device ID:00-80-00-00-00-00-fe-37 | Tx Time: 1569544662
Device ID:00-80-00-00-04-00-98-2b | Tx Time: 1569544676
Device ID:00-80-00-00-04-00-98-02 | Tx Time: 1569544669
Device ID:00-80-00-00-00-00-fe-37 | Tx Time: 1569544674
Device ID:00-80-00-00-00-00-fe-36 | Tx Time: 1569544677
Device ID:00-80-00-00-04-00-98-2b | Tx Time: 1569544687
Device ID:00-80-00-00-04-00-98-02 | Tx Time: 1569544681
Device ID:00-80-00-00-00-00-fe-37 | Tx Time: 1569544685
Device ID:00-80-00-00-00-00-fe-36 | Tx Time: 1569544690
Device ID:00-80-00-00-04-00-98-2b | Tx Time: 1569544698
Device ID:00-80-00-00-04-00-98-02 | Tx Time: 1569544693
Device ID:00-80-00-00-00-00-fe-37 | Tx Time: 1569544698
Device ID:00-80-00-00-04-00-98-2b | Tx Time: 1569544709
Device ID:00-80-00-00-04-00-98-02 | Tx Time: 1569544704
Device ID:00-80-00-00-00-00-fe-37 | Tx Time: 1569544710
Device ID:00-80-00-00-00-00-fe-36 | Tx Time: 1569544712
Device ID:00-80-00-00-04-00-98-2b | Tx Time: 1569544720
Device ID:00-80-00-00-04-00-98-02 | Tx Time: 1569544717
Device ID:00-80-00-00-00-00-fe-37 | Tx Time: 1569544721
Device ID:00-80-00-00-04-00-98-2b | Tx Time: 1569544732
Device ID:00-80-00-00-00-00-fe-36 | Tx Time: 1569544725
Device ID:00-80-00-00-04-00-98-02 | Tx Time: 1569544729
Device ID:00-80-00-00-00-00-fe-37 | Tx Time: 1569544734
Device ID:00-80-00-00-04-00-98-2b | Tx Time: 1569544743
Device ID:00-80-00-00-04-00-98-02 | Tx Time: 1569544740
Device ID:00-80-00-00-00-00-fe-37 | Tx Time: 1569544746
Device ID:00-80-00-00-04-00-98-2b | Tx Time: 1569544754
Device ID:00-80-00-00-00-00-fe-36 | Tx Time: 1569544747
Device ID:00-80-00-00-04-00-98-02 | Tx Time: 1569544752
Device ID:00-80-00-00-00-00-fe-37 | Tx Time: 1569544757
Device ID:00-80-00-00-04-00-98-2b | Tx Time: 1569544765
Device ID:00-80-00-00-00-00-fe-36 | Tx Time: 1569544760
Device ID:00-80-00-00-04-00-98-02 | Tx Time: 1569544764
Device ID:00-80-00-00-04-00-98-2b | Tx Time: 1569544776
Device ID:00-80-00-00-00-00-fe-37 | Tx Time: 1569544769
Device ID:00-80-00-00-04-00-98-02 | Tx Time: 1569544776
Device ID:00-80-00-00-04-00-98-2b | Tx Time: 1569544787
Device ID:00-80-00-00-00-00-fe-37 | Tx Time: 1569544782
Device ID:00-80-00-00-00-00-fe-36 | Tx Time: 1569544782
Device ID:00-80-00-00-04-00-98-02 | Tx Time: 1569544788
Device ID:00-80-00-00-04-00-98-2b | Tx Time: 1569544798
Device ID:00-80-00-00-00-00-fe-37 | Tx Time: 1569544793
Device ID:00-80-00-00-00-00-fe-36 | Tx Time: 1569544795
Device ID:00-80-00-00-04-00-98-02 | Tx Time: 1569544800
Device ID:00-80-00-00-04-00-98-2b | Tx Time: 1569544811
Device ID:00-80-00-00-00-00-fe-37 | Tx Time: 1569544805
Device ID:00-80-00-00-04-00-98-02 | Tx Time: 1569544811
Device ID:00-80-00-00-04-00-98-2b | Tx Time: 1569544822
Device ID:00-80-00-00-00-00-fe-37 | Tx Time: 1569544818
Device ID:00-80-00-00-00-00-fe-36 | Tx Time: 1569544817
Device ID:00-80-00-00-04-00-98-02 | Tx Time: 1569544823
Device ID:00-80-00-00-04-00-98-2b | Tx Time: 1569544834
Device ID:00-80-00-00-00-00-fe-37 | Tx Time: 1569544829
Device ID:00-80-00-00-00-00-fe-36 | Tx Time: 1569544830
Device ID:00-80-00-00-04-00-98-02 | Tx Time: 1569544835
Device ID:00-80-00-00-04-00-98-2b | Tx Time: 1569544846
Device ID:00-80-00-00-00-00-fe-37 | Tx Time: 1569544841
Device ID:00-80-00-00-04-00-98-02 | Tx Time: 1569544847
Device ID:00-80-00-00-04-00-98-2b | Tx Time: 1569544857
Device ID:00-80-00-00-00-00-fe-36 | Tx Time: 1569544852
Device ID:00-80-00-00-00-00-fe-37 | Tx Time: 1569544853
Device ID:00-80-00-00-04-00-98-02 | Tx Time: 1569544859
Device ID:00-80-00-00-04-00-98-2b | Tx Time: 1569544869
Device ID:00-80-00-00-00-00-fe-37 | Tx Time: 1569544865
Device ID:00-80-00-00-00-00-fe-36 | Tx Time: 1569544865
Device ID:00-80-00-00-04-00-98-02 | Tx Time: 1569544871
Device ID:00-80-00-00-04-00-98-2b | Tx Time: 1569544881
Device ID:00-80-00-00-00-00-fe-37 | Tx Time: 1569544877
Device ID:00-80-00-00-04-00-98-02 | Tx Time: 1569544882
Device ID:00-80-00-00-04-00-98-2b | Tx Time: 1569544892
Device ID:00-80-00-00-00-00-fe-36 | Tx Time: 1569544887
Device ID:00-80-00-00-00-00-fe-37 | Tx Time: 1569544889
Device ID:00-80-00-00-04-00-98-02 | Tx Time: 1569544894
Device ID:00-80-00-00-04-00-98-2b | Tx Time: 1569544905
Device ID:00-80-00-00-00-00-fe-36 | Tx Time: 1569544899
Device ID:00-80-00-00-00-00-fe-37 | Tx Time: 1569544901
Device ID:00-80-00-00-04-00-98-02 | Tx Time: 1569544907
Device ID:00-80-00-00-04-00-98-2b | Tx Time: 1569544917
Device ID:00-80-00-00-00-00-fe-37 | Tx Time: 1569544913
Device ID:00-80-00-00-04-00-98-02 | Tx Time: 1569544918
Device ID:00-80-00-00-04-00-98-2b | Tx Time: 1569544928
Device ID:00-80-00-00-00-00-fe-36 | Tx Time: 1569544922
Device ID:00-80-00-00-00-00-fe-37 | Tx Time: 1569544925
Device ID:00-80-00-00-04-00-98-02 | Tx Time: 1569544930
Device ID:00-80-00-00-04-00-98-2b | Tx Time: 1569544940
Device ID:00-80-00-00-00-00-fe-36 | Tx Time: 1569544934
Device ID:00-80-00-00-00-00-fe-37 | Tx Time: 1569544936
Device ID:00-80-00-00-04-00-98-02 | Tx Time: 1569544942
Device ID:00-80-00-00-00-00-fe-37 | Tx Time: 1569544949
Device ID:00-80-00-00-04-00-98-02 | Tx Time: 1569544953
Device ID:00-80-00-00-04-00-98-2b | Tx Time: 1569544964
Device ID:00-80-00-00-00-00-fe-36 | Tx Time: 1569544957
Device ID:00-80-00-00-00-00-fe-37 | Tx Time: 1569544961
Device ID:00-80-00-00-04-00-98-02 | Tx Time: 1569544966
Device ID:00-80-00-00-04-00-98-2b | Tx Time: 1569544976
Device ID:00-80-00-00-00-00-fe-36 | Tx Time: 1569544969
Device ID:00-80-00-00-00-00-fe-37 | Tx Time: 1569544972
Device ID:00-80-00-00-04-00-98-02 | Tx Time: 1569544978
Device ID:00-80-00-00-04-00-98-2b | Tx Time: 1569544988
Device ID:00-80-00-00-00-00-fe-37 | Tx Time: 1569544985
Device ID:00-80-00-00-04-00-98-02 | Tx Time: 1569544989
Device ID:00-80-00-00-04-00-98-2b | Tx Time: 1569545000
Device ID:00-80-00-00-00-00-fe-36 | Tx Time: 1569544992
Device ID:00-80-00-00-00-00-fe-37 | Tx Time: 1569544997
Device ID:00-80-00-00-04-00-98-02 | Tx Time: 1569545001
Device ID:00-80-00-00-04-00-98-2b | Tx Time: 1569545012
Device ID:00-80-00-00-00-00-fe-36 | Tx Time: 1569545004
Device ID:00-80-00-00-00-00-fe-37 | Tx Time: 1569545008
Device ID:00-80-00-00-04-00-98-02 | Tx Time: 1569545013
Device ID:00-80-00-00-04-00-98-2b | Tx Time: 1569545024
Device ID:00-80-00-00-00-00-fe-37 | Tx Time: 1569545020
Device ID:00-80-00-00-04-00-98-02 | Tx Time: 1569545025
Device ID:00-80-00-00-00-00-fe-36 | Tx Time: 1569545027
Device ID:00-80-00-00-04-00-98-2b | Tx Time: 1569545035
Device ID:00-80-00-00-00-00-fe-37 | Tx Time: 1569545033
Device ID:00-80-00-00-04-00-98-02 | Tx Time: 1569545037
Device ID:00-80-00-00-00-00-fe-36 | Tx Time: 1569545039
Device ID:00-80-00-00-04-00-98-2b | Tx Time: 1569545047
Device ID:00-80-00-00-00-00-fe-37 | Tx Time: 1569545044
Device ID:00-80-00-00-04-00-98-02 | Tx Time: 1569545049
Device ID:00-80-00-00-04-00-98-2b | Tx Time: 1569545059
Device ID:00-80-00-00-00-00-fe-37 | Tx Time: 1569545056
Device ID:00-80-00-00-04-00-98-02 | Tx Time: 1569545060
Device ID:00-80-00-00-00-00-fe-36 | Tx Time: 1569545062
Device ID:00-80-00-00-04-00-98-2b | Tx Time: 1569545070
Device ID:00-80-00-00-00-00-fe-37 | Tx Time: 1569545069
Device ID:00-80-00-00-04-00-98-02 | Tx Time: 1569545072
Device ID:00-80-00-00-00-00-fe-36 | Tx Time: 1569545074
Device ID:00-80-00-00-04-00-98-2b | Tx Time: 1569545082
Device ID:00-80-00-00-00-00-fe-37 | Tx Time: 1569545080
Device ID:00-80-00-00-04-00-98-02 | Tx Time: 1569545084
Device ID:00-80-00-00-04-00-98-2b | Tx Time: 1569545095
Device ID:00-80-00-00-00-00-fe-37 | Tx Time: 1569545092
Device ID:00-80-00-00-00-00-fe-36 | Tx Time: 1569545097
Device ID:00-80-00-00-04-00-98-02 | Tx Time: 1569545096
Device ID:00-80-00-00-04-00-98-2b | Tx Time: 1569545106
Device ID:00-80-00-00-00-00-fe-37 | Tx Time: 1569545104
Device ID:00-80-00-00-04-00-98-02 | Tx Time: 1569545108
Device ID:00-80-00-00-00-00-fe-36 | Tx Time: 1569545109
Device ID:00-80-00-00-04-00-98-2b | Tx Time: 1569545118
Device ID:00-80-00-00-00-00-fe-37 | Tx Time: 1569545116
Device ID:00-80-00-00-04-00-98-02 | Tx Time: 1569545120
Device ID:00-80-00-00-04-00-98-2b | Tx Time: 1569545130
Device ID:00-80-00-00-00-00-fe-37 | Tx Time: 1569545128
Device ID:00-80-00-00-00-00-fe-36 | Tx Time: 1569545132
Device ID:00-80-00-00-04-00-98-02 | Tx Time: 1569545131
Device ID:00-80-00-00-04-00-98-2b | Tx Time: 1569545141
Device ID:00-80-00-00-00-00-fe-37 | Tx Time: 1569545140
Device ID:00-80-00-00-00-00-fe-36 | Tx Time: 1569545144
Device ID:00-80-00-00-04-00-98-02 | Tx Time: 1569545143
Device ID:00-80-00-00-04-00-98-2b | Tx Time: 1569545153
Device ID:00-80-00-00-00-00-fe-37 | Tx Time: 1569545152
Device ID:00-80-00-00-04-00-98-02 | Tx Time: 1569545156
Device ID:00-80-00-00-04-00-98-2b | Tx Time: 1569545165
Device ID:00-80-00-00-00-00-fe-36 | Tx Time: 1569545167
Device ID:00-80-00-00-04-00-98-02 | Tx Time: 1569545167
Device ID:00-80-00-00-04-00-98-2b | Tx Time: 1569545176
Device ID:00-80-00-00-00-00-fe-37 | Tx Time: 1569545176
Device ID:00-80-00-00-00-00-fe-36 | Tx Time: 1569545179
Device ID:00-80-00-00-04-00-98-02 | Tx Time: 1569545179
Device ID:00-80-00-00-04-00-98-2b | Tx Time: 1569545189
Device ID:00-80-00-00-00-00-fe-37 | Tx Time: 1569545188
Device ID:00-80-00-00-04-00-98-2b | Tx Time: 1569545201
Device ID:00-80-00-00-00-00-fe-37 | Tx Time: 1569545200
Device ID:00-80-00-00-00-00-fe-36 | Tx Time: 1569545202
Device ID:00-80-00-00-04-00-98-2b | Tx Time: 1569545212
Device ID:00-80-00-00-04-00-98-02 | Tx Time: 1569545203
Device ID:00-80-00-00-00-00-fe-37 | Tx Time: 1569545212
Device ID:00-80-00-00-00-00-fe-36 | Tx Time: 1569545214
Device ID:00-80-00-00-04-00-98-2b | Tx Time: 1569545224
Device ID:00-80-00-00-04-00-98-02 | Tx Time: 1569545216
Device ID:00-80-00-00-00-00-fe-37 | Tx Time: 1569545223
Device ID:00-80-00-00-04-00-98-2b | Tx Time: 1569545236
Device ID:00-80-00-00-04-00-98-02 | Tx Time: 1569545228
Device ID:00-80-00-00-00-00-fe-37 | Tx Time: 1569545236
Device ID:00-80-00-00-00-00-fe-36 | Tx Time: 1569545237
Device ID:00-80-00-00-04-00-98-2b | Tx Time: 1569545247
Device ID:00-80-00-00-04-00-98-02 | Tx Time: 1569545239
Device ID:00-80-00-00-00-00-fe-37 | Tx Time: 1569545248
Device ID:00-80-00-00-00-00-fe-36 | Tx Time: 1569545249
Device ID:00-80-00-00-04-00-98-2b | Tx Time: 1569545259
Device ID:00-80-00-00-04-00-98-02 | Tx Time: 1569545251
Device ID:00-80-00-00-00-00-fe-37 | Tx Time: 1569545259
Device ID:00-80-00-00-04-00-98-2b | Tx Time: 1569545271
Device ID:00-80-00-00-04-00-98-02 | Tx Time: 1569545263
Device ID:00-80-00-00-00-00-fe-37 | Tx Time: 1569545272
Device ID:00-80-00-00-00-00-fe-36 | Tx Time: 1569545272
Device ID:00-80-00-00-04-00-98-2b | Tx Time: 1569545283
Device ID:00-80-00-00-04-00-98-02 | Tx Time: 1569545275
Device ID:00-80-00-00-00-00-fe-37 | Tx Time: 1569545284
Device ID:00-80-00-00-00-00-fe-36 | Tx Time: 1569545284
Device ID:00-80-00-00-04-00-98-2b | Tx Time: 1569545295
Device ID:00-80-00-00-04-00-98-02 | Tx Time: 1569545287
Device ID:00-80-00-00-00-00-fe-37 | Tx Time: 1569545295
Device ID:00-80-00-00-04-00-98-2b | Tx Time: 1569545307
Device ID:00-80-00-00-04-00-98-02 | Tx Time: 1569545299
Device ID:00-80-00-00-00-00-fe-36 | Tx Time: 1569545307
Device ID:00-80-00-00-00-00-fe-37 | Tx Time: 1569545307
Device ID:00-80-00-00-04-00-98-2b | Tx Time: 1569545318
Device ID:00-80-00-00-04-00-98-02 | Tx Time: 1569545310
Device ID:00-80-00-00-00-00-fe-36 | Tx Time: 1569545319
Device ID:00-80-00-00-00-00-fe-37 | Tx Time: 1569545320
Device ID:00-80-00-00-04-00-98-2b | Tx Time: 1569545330
Device ID:00-80-00-00-04-00-98-02 | Tx Time: 1569545322
Device ID:00-80-00-00-00-00-fe-37 | Tx Time: 1569545331
Device ID:00-80-00-00-04-00-98-2b | Tx Time: 1569545342
Device ID:00-80-00-00-00-00-fe-36 | Tx Time: 1569545342
Device ID:00-80-00-00-00-00-fe-37 | Tx Time: 1569545343
Device ID:00-80-00-00-04-00-98-2b | Tx Time: 1569545353
Device ID:00-80-00-00-04-00-98-02 | Tx Time: 1569545347
Device ID:00-80-00-00-00-00-fe-36 | Tx Time: 1569545354
Device ID:00-80-00-00-00-00-fe-37 | Tx Time: 1569545356
Device ID:00-80-00-00-04-00-98-2b | Tx Time: 1569545366
Device ID:00-80-00-00-04-00-98-02 | Tx Time: 1569545359
Device ID:00-80-00-00-00-00-fe-37 | Tx Time: 1569545367
Device ID:00-80-00-00-04-00-98-2b | Tx Time: 1569545378
Device ID:00-80-00-00-04-00-98-02 | Tx Time: 1569545371
Device ID:00-80-00-00-00-00-fe-36 | Tx Time: 1569545376
Device ID:00-80-00-00-00-00-fe-37 | Tx Time: 1569545379
Device ID:00-80-00-00-04-00-98-2b | Tx Time: 1569545389
Device ID:00-80-00-00-04-00-98-02 | Tx Time: 1569545382
Device ID:00-80-00-00-00-00-fe-36 | Tx Time: 1569545389
Device ID:00-80-00-00-00-00-fe-37 | Tx Time: 1569545391
Device ID:00-80-00-00-04-00-98-2b | Tx Time: 1569545401
Device ID:00-80-00-00-04-00-98-02 | Tx Time: 1569545394
Device ID:00-80-00-00-04-00-98-2b | Tx Time: 1569545413
Device ID:00-80-00-00-04-00-98-02 | Tx Time: 1569545407
Device ID:00-80-00-00-00-00-fe-36 | Tx Time: 1569545411
Device ID:00-80-00-00-00-00-fe-37 | Tx Time: 1569545415
Device ID:00-80-00-00-04-00-98-2b | Tx Time: 1569545424
Device ID:00-80-00-00-04-00-98-02 | Tx Time: 1569545418
Device ID:00-80-00-00-00-00-fe-36 | Tx Time: 1569545424
Device ID:00-80-00-00-00-00-fe-37 | Tx Time: 1569545427
Device ID:00-80-00-00-04-00-98-2b | Tx Time: 1569545436
Device ID:00-80-00-00-04-00-98-02 | Tx Time: 1569545430
Device ID:00-80-00-00-00-00-fe-37 | Tx Time: 1569545440
Device ID:00-80-00-00-04-00-98-2b | Tx Time: 1569545448
Device ID:00-80-00-00-04-00-98-02 | Tx Time: 1569545442
Device ID:00-80-00-00-00-00-fe-36 | Tx Time: 1569545446
Device ID:00-80-00-00-00-00-fe-37 | Tx Time: 1569545452
Device ID:00-80-00-00-04-00-98-2b | Tx Time: 1569545460
Device ID:00-80-00-00-04-00-98-02 | Tx Time: 1569545453
Device ID:00-80-00-00-00-00-fe-36 | Tx Time: 1569545459
Device ID:00-80-00-00-00-00-fe-37 | Tx Time: 1569545464
Device ID:00-80-00-00-04-00-98-2b | Tx Time: 1569545472
Device ID:00-80-00-00-04-00-98-02 | Tx Time: 1569545466
Device ID:00-80-00-00-00-00-fe-37 | Tx Time: 1569545475
Device ID:00-80-00-00-04-00-98-2b | Tx Time: 1569545484
Device ID:00-80-00-00-04-00-98-02 | Tx Time: 1569545478
Device ID:00-80-00-00-00-00-fe-36 | Tx Time: 1569545481
Device ID:00-80-00-00-04-00-98-2b | Tx Time: 1569545495
Device ID:00-80-00-00-00-00-fe-37 | Tx Time: 1569545488
Device ID:00-80-00-00-04-00-98-02 | Tx Time: 1569545489
Device ID:00-80-00-00-00-00-fe-36 | Tx Time: 1569545494
Device ID:00-80-00-00-04-00-98-2b | Tx Time: 1569545507
Device ID:00-80-00-00-00-00-fe-37 | Tx Time: 1569545500
Device ID:00-80-00-00-04-00-98-02 | Tx Time: 1569545501
Device ID:00-80-00-00-00-00-fe-37 | Tx Time: 1569545511
Device ID:00-80-00-00-04-00-98-2b | Tx Time: 1569545519
Device ID:00-80-00-00-04-00-98-02 | Tx Time: 1569545513
Device ID:00-80-00-00-00-00-fe-36 | Tx Time: 1569545516
Device ID:00-80-00-00-04-00-98-2b | Tx Time: 1569545530
Device ID:00-80-00-00-00-00-fe-37 | Tx Time: 1569545524
Device ID:00-80-00-00-04-00-98-02 | Tx Time: 1569545524
Device ID:00-80-00-00-00-00-fe-36 | Tx Time: 1569545529
Device ID:00-80-00-00-00-00-fe-37 | Tx Time: 1569545536
Device ID:00-80-00-00-04-00-98-02 | Tx Time: 1569545537
Device ID:00-80-00-00-00-00-fe-37 | Tx Time: 1569545547
Device ID:00-80-00-00-04-00-98-2b | Tx Time: 1569545555
Device ID:00-80-00-00-04-00-98-02 | Tx Time: 1569545549
Device ID:00-80-00-00-04-00-98-2b | Tx Time: 1569545567
Device ID:00-80-00-00-00-00-fe-37 | Tx Time: 1569545560
Device ID:00-80-00-00-04-00-98-02 | Tx Time: 1569545560
Device ID:00-80-00-00-00-00-fe-36 | Tx Time: 1569545564
Device ID:00-80-00-00-04-00-98-2b | Tx Time: 1569545579
Device ID:00-80-00-00-00-00-fe-37 | Tx Time: 1569545572
Device ID:00-80-00-00-04-00-98-02 | Tx Time: 1569545572
Device ID:00-80-00-00-00-00-fe-37 | Tx Time: 1569545583
Device ID:00-80-00-00-04-00-98-2b | Tx Time: 1569545591
Device ID:00-80-00-00-04-00-98-02 | Tx Time: 1569545584
Device ID:00-80-00-00-00-00-fe-36 | Tx Time: 1569545586
Device ID:00-80-00-00-04-00-98-2b | Tx Time: 1569545602
Device ID:00-80-00-00-00-00-fe-37 | Tx Time: 1569545595
Device ID:00-80-00-00-04-00-98-02 | Tx Time: 1569545596
Device ID:00-80-00-00-00-00-fe-36 | Tx Time: 1569545599
Device ID:00-80-00-00-04-00-98-2b | Tx Time: 1569545614
Device ID:00-80-00-00-00-00-fe-37 | Tx Time: 1569545608
Device ID:00-80-00-00-04-00-98-02 | Tx Time: 1569545608
Device ID:00-80-00-00-00-00-fe-37 | Tx Time: 1569545619
Device ID:00-80-00-00-04-00-98-2b | Tx Time: 1569545626
Device ID:00-80-00-00-04-00-98-02 | Tx Time: 1569545620
Device ID:00-80-00-00-00-00-fe-36 | Tx Time: 1569545621
Device ID:00-80-00-00-04-00-98-2b | Tx Time: 1569545637
Device ID:00-80-00-00-00-00-fe-37 | Tx Time: 1569545631
Device ID:00-80-00-00-04-00-98-02 | Tx Time: 1569545631
Device ID:00-80-00-00-00-00-fe-36 | Tx Time: 1569545634
Device ID:00-80-00-00-04-00-98-2b | Tx Time: 1569545650
Device ID:00-80-00-00-00-00-fe-37 | Tx Time: 1569545644
Device ID:00-80-00-00-04-00-98-02 | Tx Time: 1569545643
Device ID:00-80-00-00-04-00-98-2b | Tx Time: 1569545662
Device ID:00-80-00-00-00-00-fe-37 | Tx Time: 1569545655
Device ID:00-80-00-00-00-00-fe-36 | Tx Time: 1569545656
Device ID:00-80-00-00-04-00-98-02 | Tx Time: 1569545656
Device ID:00-80-00-00-00-00-fe-37 | Tx Time: 1569545667
Device ID:00-80-00-00-04-00-98-02 | Tx Time: 1569545667
Device ID:00-80-00-00-00-00-fe-36 | Tx Time: 1569545669
Device ID:00-80-00-00-04-00-98-2b | Tx Time: 1569545685
Device ID:00-80-00-00-00-00-fe-37 | Tx Time: 1569545679
Device ID:00-80-00-00-04-00-98-02 | Tx Time: 1569545679
Device ID:00-80-00-00-04-00-98-2b | Tx Time: 1569545697
Device ID:00-80-00-00-00-00-fe-37 | Tx Time: 1569545691
Device ID:00-80-00-00-00-00-fe-36 | Tx Time: 1569545691
Device ID:00-80-00-00-04-00-98-02 | Tx Time: 1569545691
Device ID:00-80-00-00-04-00-98-2b | Tx Time: 1569545708
Device ID:00-80-00-00-00-00-fe-37 | Tx Time: 1569545703
Device ID:00-80-00-00-04-00-98-02 | Tx Time: 1569545702
Device ID:00-80-00-00-00-00-fe-36 | Tx Time: 1569545704
Device ID:00-80-00-00-04-00-98-2b | Tx Time: 1569545720
Device ID:00-80-00-00-00-00-fe-37 | Tx Time: 1569545715
Device ID:00-80-00-00-04-00-98-02 | Tx Time: 1569545715
Device ID:00-80-00-00-04-00-98-2b | Tx Time: 1569545732
Device ID:00-80-00-00-00-00-fe-37 | Tx Time: 1569545727
Device ID:00-80-00-00-00-00-fe-36 | Tx Time: 1569545726
Device ID:00-80-00-00-04-00-98-02 | Tx Time: 1569545727
Device ID:00-80-00-00-04-00-98-2b | Tx Time: 1569545744
Device ID:00-80-00-00-00-00-fe-37 | Tx Time: 1569545739
Device ID:00-80-00-00-00-00-fe-36 | Tx Time: 1569545739
Device ID:00-80-00-00-04-00-98-02 | Tx Time: 1569545738
Device ID:00-80-00-00-04-00-98-2b | Tx Time: 1569545756
Device ID:00-80-00-00-00-00-fe-37 | Tx Time: 1569545751
Device ID:00-80-00-00-04-00-98-02 | Tx Time: 1569545750
Device ID:00-80-00-00-04-00-98-2b | Tx Time: 1569545768
Device ID:00-80-00-00-00-00-fe-37 | Tx Time: 1569545762
Device ID:00-80-00-00-04-00-98-02 | Tx Time: 1569545762
Device ID:00-80-00-00-04-00-98-2b | Tx Time: 1569545779
Device ID:00-80-00-00-00-00-fe-36 | Tx Time: 1569545774
Device ID:00-80-00-00-00-00-fe-37 | Tx Time: 1569545775
Device ID:00-80-00-00-04-00-98-02 | Tx Time: 1569545773
Device ID:00-80-00-00-04-00-98-2b | Tx Time: 1569545791
Device ID:00-80-00-00-00-00-fe-37 | Tx Time: 1569545787
Device ID:00-80-00-00-04-00-98-2b | Tx Time: 1569545803
Device ID:00-80-00-00-00-00-fe-36 | Tx Time: 1569545796
Device ID:00-80-00-00-00-00-fe-37 | Tx Time: 1569545798
Device ID:00-80-00-00-04-00-98-02 | Tx Time: 1569545798
Device ID:00-80-00-00-04-00-98-2b | Tx Time: 1569545814
Device ID:00-80-00-00-00-00-fe-36 | Tx Time: 1569545809
Device ID:00-80-00-00-00-00-fe-37 | Tx Time: 1569545811
Device ID:00-80-00-00-04-00-98-02 | Tx Time: 1569545809
Device ID:00-80-00-00-04-00-98-2b | Tx Time: 1569545826
Device ID:00-80-00-00-04-00-98-02 | Tx Time: 1569545821
Device ID:00-80-00-00-00-00-fe-37 | Tx Time: 1569545823
Device ID:00-80-00-00-04-00-98-2b | Tx Time: 1569545839
Device ID:00-80-00-00-00-00-fe-36 | Tx Time: 1569545831
Device ID:00-80-00-00-04-00-98-02 | Tx Time: 1569545833
Device ID:00-80-00-00-00-00-fe-37 | Tx Time: 1569545835
Device ID:00-80-00-00-04-00-98-2b | Tx Time: 1569545850
Device ID:00-80-00-00-00-00-fe-36 | Tx Time: 1569545843
Device ID:00-80-00-00-04-00-98-02 | Tx Time: 1569545845
Device ID:00-80-00-00-00-00-fe-37 | Tx Time: 1569545847
Device ID:00-80-00-00-04-00-98-2b | Tx Time: 1569545862
Device ID:00-80-00-00-04-00-98-02 | Tx Time: 1569545857
Device ID:00-80-00-00-00-00-fe-37 | Tx Time: 1569545860
Device ID:00-80-00-00-00-00-fe-36 | Tx Time: 1569545866
Device ID:00-80-00-00-04-00-98-2b | Tx Time: 1569545874
Device ID:00-80-00-00-04-00-98-02 | Tx Time: 1569545869
Device ID:00-80-00-00-00-00-fe-37 | Tx Time: 1569545871
Device ID:00-80-00-00-04-00-98-2b | Tx Time: 1569545885
Device ID:00-80-00-00-00-00-fe-36 | Tx Time: 1569545878
Device ID:00-80-00-00-04-00-98-02 | Tx Time: 1569545880
Device ID:00-80-00-00-00-00-fe-37 | Tx Time: 1569545883
Device ID:00-80-00-00-04-00-98-2b | Tx Time: 1569545897
Device ID:00-80-00-00-04-00-98-02 | Tx Time: 1569545892
Device ID:00-80-00-00-00-00-fe-37 | Tx Time: 1569545896
Device ID:00-80-00-00-00-00-fe-36 | Tx Time: 1569545901
Device ID:00-80-00-00-04-00-98-2b | Tx Time: 1569545909
Device ID:00-80-00-00-04-00-98-02 | Tx Time: 1569545905
Device ID:00-80-00-00-00-00-fe-37 | Tx Time: 1569545907
Device ID:00-80-00-00-04-00-98-2b | Tx Time: 1569545920
Device ID:00-80-00-00-00-00-fe-36 | Tx Time: 1569545913
Device ID:00-80-00-00-04-00-98-02 | Tx Time: 1569545916
Device ID:00-80-00-00-00-00-fe-37 | Tx Time: 1569545919
Device ID:00-80-00-00-04-00-98-2b | Tx Time: 1569545933
Device ID:00-80-00-00-04-00-98-02 | Tx Time: 1569545928
Device ID:00-80-00-00-00-00-fe-37 | Tx Time: 1569545931
Device ID:00-80-00-00-00-00-fe-36 | Tx Time: 1569545936
Device ID:00-80-00-00-04-00-98-2b | Tx Time: 1569545945
Device ID:00-80-00-00-04-00-98-02 | Tx Time: 1569545940
Device ID:00-80-00-00-04-00-98-02 | Tx Time: 1569545951
Device ID:00-80-00-00-00-00-fe-37 | Tx Time: 1569545955
Device ID:00-80-00-00-04-00-98-2b | Tx Time: 1569545968
Device ID:00-80-00-00-04-00-98-02 | Tx Time: 1569545964
Device ID:00-80-00-00-00-00-fe-37 | Tx Time: 1569545967
Device ID:00-80-00-00-00-00-fe-36 | Tx Time: 1569545971
Device ID:00-80-00-00-04-00-98-2b | Tx Time: 1569545980
Device ID:00-80-00-00-04-00-98-02 | Tx Time: 1569545976
Device ID:00-80-00-00-00-00-fe-37 | Tx Time: 1569545979
Device ID:00-80-00-00-00-00-fe-36 | Tx Time: 1569545983
Device ID:00-80-00-00-04-00-98-2b | Tx Time: 1569545991
Device ID:00-80-00-00-04-00-98-02 | Tx Time: 1569545987
Device ID:00-80-00-00-00-00-fe-37 | Tx Time: 1569545991
Device ID:00-80-00-00-04-00-98-2b | Tx Time: 1569546003
Device ID:00-80-00-00-04-00-98-02 | Tx Time: 1569545999
Device ID:00-80-00-00-00-00-fe-37 | Tx Time: 1569546003
Device ID:00-80-00-00-00-00-fe-36 | Tx Time: 1569546006
Device ID:00-80-00-00-04-00-98-2b | Tx Time: 1569546015
Device ID:00-80-00-00-04-00-98-02 | Tx Time: 1569546011
Device ID:00-80-00-00-00-00-fe-37 | Tx Time: 1569546015
Device ID:00-80-00-00-00-00-fe-36 | Tx Time: 1569546018
Device ID:00-80-00-00-04-00-98-2b | Tx Time: 1569546027
Device ID:00-80-00-00-04-00-98-02 | Tx Time: 1569546022
Device ID:00-80-00-00-00-00-fe-37 | Tx Time: 1569546027
Device ID:00-80-00-00-04-00-98-2b | Tx Time: 1569546039
Device ID:00-80-00-00-04-00-98-02 | Tx Time: 1569546035
Device ID:00-80-00-00-00-00-fe-37 | Tx Time: 1569546039
Device ID:00-80-00-00-00-00-fe-36 | Tx Time: 1569546041
Device ID:00-80-00-00-04-00-98-2b | Tx Time: 1569546051
Device ID:00-80-00-00-04-00-98-02 | Tx Time: 1569546047
Device ID:00-80-00-00-00-00-fe-37 | Tx Time: 1569546050
Device ID:00-80-00-00-00-00-fe-36 | Tx Time: 1569546053
Device ID:00-80-00-00-04-00-98-2b | Tx Time: 1569546062
Device ID:00-80-00-00-04-00-98-02 | Tx Time: 1569546058
Device ID:00-80-00-00-00-00-fe-37 | Tx Time: 1569546063
Device ID:00-80-00-00-04-00-98-2b | Tx Time: 1569546074
Device ID:00-80-00-00-04-00-98-02 | Tx Time: 1569546070
Device ID:00-80-00-00-00-00-fe-37 | Tx Time: 1569546075
Device ID:00-80-00-00-04-00-98-2b | Tx Time: 1569546086
Device ID:00-80-00-00-04-00-98-02 | Tx Time: 1569546082
Device ID:00-80-00-00-00-00-fe-37 | Tx Time: 1569546086
Device ID:00-80-00-00-00-00-fe-36 | Tx Time: 1569546088
Device ID:00-80-00-00-04-00-98-2b | Tx Time: 1569546097
Device ID:00-80-00-00-04-00-98-02 | Tx Time: 1569546094
Device ID:00-80-00-00-00-00-fe-37 | Tx Time: 1569546099
Device ID:00-80-00-00-04-00-98-2b | Tx Time: 1569546109
Device ID:00-80-00-00-04-00-98-02 | Tx Time: 1569546106
Device ID:00-80-00-00-00-00-fe-37 | Tx Time: 1569546111
Device ID:00-80-00-00-00-00-fe-36 | Tx Time: 1569546111
Device ID:00-80-00-00-04-00-98-2b | Tx Time: 1569546122
Device ID:00-80-00-00-04-00-98-02 | Tx Time: 1569546118
Device ID:00-80-00-00-00-00-fe-37 | Tx Time: 1569546122
Device ID:00-80-00-00-00-00-fe-36 | Tx Time: 1569546123
Device ID:00-80-00-00-04-00-98-2b | Tx Time: 1569546133
Device ID:00-80-00-00-04-00-98-02 | Tx Time: 1569546129
Device ID:00-80-00-00-00-00-fe-37 | Tx Time: 1569546134
Device ID:00-80-00-00-04-00-98-2b | Tx Time: 1569546145
Device ID:00-80-00-00-04-00-98-02 | Tx Time: 1569546141
Device ID:00-80-00-00-00-00-fe-36 | Tx Time: 1569546146
Device ID:00-80-00-00-00-00-fe-37 | Tx Time: 1569546147
Device ID:00-80-00-00-04-00-98-2b | Tx Time: 1569546157
Device ID:00-80-00-00-04-00-98-02 | Tx Time: 1569546154
Device ID:00-80-00-00-00-00-fe-37 | Tx Time: 1569546158
Device ID:00-80-00-00-00-00-fe-36 | Tx Time: 1569546158
Device ID:00-80-00-00-04-00-98-2b | Tx Time: 1569546168
Device ID:00-80-00-00-04-00-98-02 | Tx Time: 1569546165
Device ID:00-80-00-00-00-00-fe-37 | Tx Time: 1569546170
Device ID:00-80-00-00-04-00-98-2b | Tx Time: 1569546180
Device ID:00-80-00-00-04-00-98-02 | Tx Time: 1569546177
Device ID:00-80-00-00-00-00-fe-36 | Tx Time: 1569546181
Device ID:00-80-00-00-00-00-fe-37 | Tx Time: 1569546183
Device ID:00-80-00-00-04-00-98-2b | Tx Time: 1569546192
Device ID:00-80-00-00-04-00-98-02 | Tx Time: 1569546189
Device ID:00-80-00-00-00-00-fe-36 | Tx Time: 1569546193
Device ID:00-80-00-00-00-00-fe-37 | Tx Time: 1569546194
Device ID:00-80-00-00-04-00-98-2b | Tx Time: 1569546204
Device ID:00-80-00-00-04-00-98-02 | Tx Time: 1569546200
Device ID:00-80-00-00-00-00-fe-37 | Tx Time: 1569546206
Device ID:00-80-00-00-04-00-98-2b | Tx Time: 1569546216
Device ID:00-80-00-00-04-00-98-02 | Tx Time: 1569546213
Device ID:00-80-00-00-00-00-fe-36 | Tx Time: 1569546216
Device ID:00-80-00-00-00-00-fe-37 | Tx Time: 1569546218
Device ID:00-80-00-00-04-00-98-2b | Tx Time: 1569546228
Device ID:00-80-00-00-04-00-98-02 | Tx Time: 1569546225
Device ID:00-80-00-00-00-00-fe-36 | Tx Time: 1569546228
Device ID:00-80-00-00-00-00-fe-37 | Tx Time: 1569546230
Device ID:00-80-00-00-04-00-98-2b | Tx Time: 1569546239
Device ID:00-80-00-00-04-00-98-02 | Tx Time: 1569546236
Device ID:00-80-00-00-00-00-fe-37 | Tx Time: 1569546242
Device ID:00-80-00-00-04-00-98-2b | Tx Time: 1569546251
